mtllib Cublet.mtl
g g0
v 0.462941 0.498297 -0.45
v 0.475 0.493301 -0.45
v 0.485356 0.485356 -0.45
v 0.493301 0.475 -0.45
v 0.498297 0.462941 -0.45
v 0.45 0.5 -0.45
v -0.45 0.5 -0.45
v -0.462941 0.498297 -0.45
v -0.475 0.493301 -0.45
v -0.485356 0.485356 -0.45
v -0.493301 0.475 -0.45
v -0.498297 0.462941 -0.45
v 0.5 0.45 -0.45
v -0.5 0.45 -0.45
v 0.5 -0.45 -0.45
v 0.498297 -0.462941 -0.45
v 0.493301 -0.475 -0.45
v 0.485356 -0.485356 -0.45
v 0.462941 -0.498297 -0.45
v 0.475 -0.493301 -0.45
v 0.45 -0.5 -0.45
v -0.45 -0.5 -0.45
v -0.5 -0.45 -0.45
v -0.498297 -0.462941 -0.45
v -0.493301 -0.475 -0.45
v -0.485356 -0.485356 -0.45
v -0.475 -0.493301 -0.45
v -0.462941 -0.498297 -0.45
v 0.475 0.45 0.493302
v 0.5 0.45 0.45
v 0.493301 0.45 0.475
v 0.45 0.45 0.5
v -0.5 0.45 0.45
v -0.493301 0.45 0.475
v -0.45 0.45 0.5
v -0.475 0.45 0.493302
v 0.45 -0.5 0.45
v 0.45 -0.45 0.5
v 0.45 -0.462941 0.498296
v 0.45 -0.475 0.493302
v 0.45 -0.485356 0.485356
v 0.45 -0.498297 0.46294
v 0.45 -0.493301 0.475
v -0.5 -0.45 0.45
v -0.493301 -0.45 0.475
v -0.475 -0.45 0.493302
v -0.45 -0.45 0.5
v -0.498297 -0.462941 0.45
v -0.491826 -0.462941 0.474148
v -0.474148 -0.462941 0.491826
v -0.45 -0.462941 0.498296
v -0.493301 -0.475 0.45
v -0.4875 -0.475 0.47165
v -0.471651 -0.475 0.4875
v -0.45 -0.475 0.493302
v -0.485356 -0.485356 0.45
v -0.480619 -0.485356 0.467678
v -0.467678 -0.485356 0.480618
v -0.45 -0.485356 0.485356
v -0.475 -0.493301 0.45
v -0.471651 -0.493301 0.4625
v -0.4625 -0.493301 0.47165
v -0.45 -0.493301 0.475
v -0.462941 -0.498297 0.45
v -0.461207 -0.498297 0.45647
v -0.45647 -0.498297 0.461208
v -0.45 -0.498297 0.46294
v -0.45 -0.5 0.45
v 0.462941 -0.498297 0.45
v 0.475 -0.493301 0.45
v 0.471651 -0.493301 0.4625
v 0.461207 -0.498297 0.45647
v 0.4625 -0.493301 0.47165
v 0.45647 -0.498297 0.461208
v 0.485356 -0.485356 0.45
v 0.480619 -0.485356 0.467678
v 0.467678 -0.485356 0.480618
v 0.493301 -0.475 0.45
v 0.4875 -0.475 0.47165
v 0.471651 -0.475 0.4875
v 0.498297 -0.462941 0.45
v 0.491826 -0.462941 0.474148
v 0.474148 -0.462941 0.491826
v 0.5 -0.45 0.45
v 0.493301 -0.45 0.475
v 0.475 -0.45 0.493302
v -0.45 0.462941 0.498296
v -0.474148 0.462941 0.491826
v -0.491826 0.462941 0.474148
v -0.498297 0.462941 0.45
v -0.45 0.475 0.493302
v -0.471651 0.475 0.4875
v -0.4875 0.475 0.47165
v -0.493301 0.475 0.45
v -0.45 0.485356 0.485356
v -0.467678 0.485356 0.480618
v -0.480619 0.485356 0.467678
v -0.485356 0.485356 0.45
v -0.45 0.493301 0.475
v -0.4625 0.493301 0.47165
v -0.471651 0.493301 0.4625
v -0.475 0.493301 0.45
v -0.45 0.498297 0.46294
v -0.45647 0.498297 0.461208
v -0.461207 0.498297 0.45647
v -0.462941 0.498297 0.45
v -0.45 0.5 0.45
v 0.45 0.462941 0.498296
v 0.45 0.475 0.493302
v 0.45 0.485356 0.485356
v 0.45 0.493301 0.475
v 0.45 0.498297 0.46294
v 0.45 0.5 0.45
v 0.498297 0.462941 0.45
v 0.491826 0.462941 0.474148
v 0.474148 0.462941 0.491826
v 0.493301 0.475 0.45
v 0.4875 0.475 0.47165
v 0.471651 0.475 0.4875
v 0.485356 0.485356 0.45
v 0.480619 0.485356 0.467678
v 0.467678 0.485356 0.480618
v 0.475 0.493301 0.45
v 0.471651 0.493301 0.4625
v 0.4625 0.493301 0.47165
v 0.462941 0.498297 0.45
v 0.461207 0.498297 0.45647
v 0.45647 0.498297 0.461208
v -0.471651 -0.493301 -0.4625
v -0.461207 -0.498297 -0.45647
v -0.4625 -0.493301 -0.47165
v -0.45647 -0.498297 -0.461208
v -0.45 -0.493301 -0.475
v -0.45 -0.498297 -0.46294
v -0.480619 -0.485356 -0.467678
v -0.467678 -0.485356 -0.480618
v -0.45 -0.485356 -0.485356
v -0.4875 -0.475 -0.47165
v -0.471651 -0.475 -0.4875
v -0.45 -0.475 -0.493302
v -0.491826 -0.462941 -0.474148
v -0.474148 -0.462941 -0.491826
v -0.45 -0.462941 -0.498296
v -0.493301 -0.45 -0.475
v -0.475 -0.45 -0.493302
v -0.45 -0.45 -0.5
v 0.45 -0.493301 -0.475
v 0.45 -0.498297 -0.46294
v 0.45 -0.485356 -0.485356
v 0.45 -0.475 -0.493302
v 0.45 -0.462941 -0.498296
v 0.45 -0.45 -0.5
v 0.4625 -0.493301 -0.47165
v 0.45647 -0.498297 -0.461208
v 0.471651 -0.493301 -0.4625
v 0.461207 -0.498297 -0.45647
v 0.467678 -0.485356 -0.480618
v 0.480619 -0.485356 -0.467678
v 0.471651 -0.475 -0.4875
v 0.4875 -0.475 -0.47165
v 0.474148 -0.462941 -0.491826
v 0.491826 -0.462941 -0.474148
v 0.475 -0.45 -0.493302
v 0.493301 -0.45 -0.475
v -0.493301 0.45 -0.475
v -0.475 0.45 -0.493302
v -0.45 0.45 -0.5
v 0.45 0.45 -0.5
v 0.475 0.45 -0.493302
v 0.493301 0.45 -0.475
v -0.491826 0.462941 -0.474148
v -0.474148 0.462941 -0.491826
v -0.45 0.462941 -0.498296
v -0.4875 0.475 -0.47165
v -0.471651 0.475 -0.4875
v -0.45 0.475 -0.493302
v -0.480619 0.485356 -0.467678
v -0.467678 0.485356 -0.480618
v -0.45 0.485356 -0.485356
v -0.471651 0.493301 -0.4625
v -0.4625 0.493301 -0.47165
v -0.45 0.493301 -0.475
v -0.461207 0.498297 -0.45647
v -0.45647 0.498297 -0.461208
v -0.45 0.498297 -0.46294
v 0.45 0.462941 -0.498296
v 0.45 0.475 -0.493302
v 0.45 0.485356 -0.485356
v 0.45 0.493301 -0.475
v 0.45 0.498297 -0.46294
v 0.474148 0.462941 -0.491826
v 0.491826 0.462941 -0.474148
v 0.471651 0.475 -0.4875
v 0.4875 0.475 -0.47165
v 0.467678 0.485356 -0.480618
v 0.480619 0.485356 -0.467678
v 0.4625 0.493301 -0.47165
v 0.471651 0.493301 -0.4625
v 0.45647 0.498297 -0.461208
v 0.461207 0.498297 -0.45647
vn 0.223902 0.966002 -0.129262
vn 0.498664 0.864243 -0.0664726
vn 0.432621 0.866287 -0.249773
vn 0.498664 0.864243 -0.0664726
vn 0.223902 0.966002 -0.129262
vn 0.258522 0.965387 -0.0345716
vn 0.129247 0.966005 -0.223896
vn 0.432621 0.866287 -0.249773
vn 0.249761 0.866287 -0.432627
vn 0.432621 0.866287 -0.249773
vn 0.129247 0.966005 -0.223896
vn 0.223902 0.966002 -0.129262
vn 0.0345358 0.965386 -0.25853
vn 0.249761 0.866287 -0.432627
vn 0.0664573 0.864244 -0.498664
vn 0.249761 0.866287 -0.432627
vn 0.0345358 0.965386 -0.25853
vn 0.129247 0.966005 -0.223896
vn 0.432621 0.866287 -0.249773
vn 0.703808 0.704219 -0.0934324
vn 0.611999 0.70753 -0.353353
vn 0.703808 0.704219 -0.0934324
vn 0.432621 0.866287 -0.249773
vn 0.498664 0.864243 -0.0664726
vn 0.249761 0.866287 -0.432627
vn 0.611999 0.70753 -0.353353
vn 0.353344 0.707535 -0.611999
vn 0.611999 0.70753 -0.353353
vn 0.249761 0.866287 -0.432627
vn 0.432621 0.866287 -0.249773
vn 0.0664573 0.864244 -0.498664
vn 0.353344 0.707535 -0.611999
vn 0.0934512 0.704243 -0.703782
vn 0.353344 0.707535 -0.611999
vn 0.0664573 0.864244 -0.498664
vn 0.249761 0.866287 -0.432627
vn 0.611999 0.70753 -0.353353
vn 0.860287 0.496958 -0.113748
vn 0.749789 0.50042 -0.432892
vn 0.860287 0.496958 -0.113748
vn 0.611999 0.70753 -0.353353
vn 0.703808 0.704219 -0.0934324
vn 0.353344 0.707535 -0.611999
vn 0.749789 0.50042 -0.432892
vn 0.432909 0.500416 -0.749783
vn 0.749789 0.50042 -0.432892
vn 0.353344 0.707535 -0.611999
vn 0.611999 0.70753 -0.353353
vn 0.353344 0.707535 -0.611999
vn 0.113766 0.496939 -0.860296
vn 0.0934512 0.704243 -0.703782
vn 0.113766 0.496939 -0.860296
vn 0.353344 0.707535 -0.611999
vn 0.432909 0.500416 -0.749783
vn 0.749789 0.50042 -0.432892
vn 0.958151 0.256886 -0.126319
vn 0.836452 0.259101 -0.482923
vn 0.958151 0.256886 -0.126319
vn 0.749789 0.50042 -0.432892
vn 0.860287 0.496958 -0.113748
vn 0.432909 0.500416 -0.749783
vn 0.836452 0.259101 -0.482923
vn 0.482932 0.259101 -0.836447
vn 0.836452 0.259101 -0.482923
vn 0.432909 0.500416 -0.749783
vn 0.749789 0.50042 -0.432892
vn 0.432909 0.500416 -0.749783
vn 0.126317 0.256869 -0.958156
vn 0.113766 0.496939 -0.860296
vn 0.126317 0.256869 -0.958156
vn 0.432909 0.500416 -0.749783
vn 0.482932 0.259101 -0.836447
vn 0.836452 0.259101 -0.482923
vn 0.989356 0.0648306 -0.130278
vn 0.86417 0.0654131 -0.49893
vn 0.989356 0.0648306 -0.130278
vn 0.836452 0.259101 -0.482923
vn 0.958151 0.256886 -0.126319
vn 0.482932 0.259101 -0.836447
vn 0.86417 0.0654131 -0.49893
vn 0.498925 0.0654326 -0.864172
vn 0.86417 0.0654131 -0.49893
vn 0.482932 0.259101 -0.836447
vn 0.836452 0.259101 -0.482923
vn 0.482932 0.259101 -0.836447
vn 0.130259 0.0648683 -0.989356
vn 0.126317 0.256869 -0.958156
vn 0.130259 0.0648683 -0.989356
vn 0.482932 0.259101 -0.836447
vn 0.498925 0.0654326 -0.864172
vn -0.0654124 0.995712 -0.0654185
vn 0.0345358 0.965386 -0.25853
vn -0.0345358 0.965386 -0.25853
vn 0.0345358 0.965386 -0.25853
vn -0.0654124 0.995712 -0.0654185
vn 0.0654124 0.995712 -0.0654185
vn -0.0345358 0.965386 -0.25853
vn 0.0664573 0.864244 -0.498664
vn -0.0664573 0.864244 -0.498664
vn 0.0664573 0.864244 -0.498664
vn -0.0345358 0.965386 -0.25853
vn 0.0345358 0.965386 -0.25853
vn -0.0664573 0.864244 -0.498664
vn 0.0934512 0.704243 -0.703782
vn -0.0934512 0.704243 -0.703782
vn 0.0934512 0.704243 -0.703782
vn -0.0664573 0.864244 -0.498664
vn 0.0664573 0.864244 -0.498664
vn 0.0934512 0.704243 -0.703782
vn -0.113766 0.496939 -0.860296
vn -0.0934512 0.704243 -0.703782
vn -0.113766 0.496939 -0.860296
vn 0.0934512 0.704243 -0.703782
vn 0.113766 0.496939 -0.860296
vn 0.113766 0.496939 -0.860296
vn -0.126317 0.256869 -0.958156
vn -0.113766 0.496939 -0.860296
vn -0.126317 0.256869 -0.958156
vn 0.113766 0.496939 -0.860296
vn 0.126317 0.256869 -0.958156
vn 0.126317 0.256869 -0.958156
vn -0.130259 0.0648683 -0.989356
vn -0.126317 0.256869 -0.958156
vn -0.130259 0.0648683 -0.989356
vn 0.126317 0.256869 -0.958156
vn 0.130259 0.0648683 -0.989356
vn -0.249761 0.866287 -0.432627
vn -0.0345358 0.965386 -0.25853
vn -0.0664573 0.864244 -0.498664
vn -0.0345358 0.965386 -0.25853
vn -0.249761 0.866287 -0.432627
vn -0.129247 0.966005 -0.223896
vn -0.432621 0.866287 -0.249773
vn -0.129247 0.966005 -0.223896
vn -0.249761 0.866287 -0.432627
vn -0.129247 0.966005 -0.223896
vn -0.432621 0.866287 -0.249773
vn -0.223902 0.966002 -0.129262
vn -0.498664 0.864243 -0.0664726
vn -0.223902 0.966002 -0.129262
vn -0.432621 0.866287 -0.249773
vn -0.223902 0.966002 -0.129262
vn -0.498664 0.864243 -0.0664726
vn -0.258522 0.965387 -0.0345716
vn -0.353344 0.707535 -0.611999
vn -0.0664573 0.864244 -0.498664
vn -0.0934512 0.704243 -0.703782
vn -0.0664573 0.864244 -0.498664
vn -0.353344 0.707535 -0.611999
vn -0.249761 0.866287 -0.432627
vn -0.611999 0.70753 -0.353353
vn -0.249761 0.866287 -0.432627
vn -0.353344 0.707535 -0.611999
vn -0.249761 0.866287 -0.432627
vn -0.611999 0.70753 -0.353353
vn -0.432621 0.866287 -0.249773
vn -0.703808 0.704219 -0.0934324
vn -0.432621 0.866287 -0.249773
vn -0.611999 0.70753 -0.353353
vn -0.432621 0.866287 -0.249773
vn -0.703808 0.704219 -0.0934324
vn -0.498664 0.864243 -0.0664726
vn -0.353344 0.707535 -0.611999
vn -0.113766 0.496939 -0.860296
vn -0.432909 0.500416 -0.749783
vn -0.113766 0.496939 -0.860296
vn -0.353344 0.707535 -0.611999
vn -0.0934512 0.704243 -0.703782
vn -0.749789 0.50042 -0.432892
vn -0.353344 0.707535 -0.611999
vn -0.432909 0.500416 -0.749783
vn -0.353344 0.707535 -0.611999
vn -0.749789 0.50042 -0.432892
vn -0.611999 0.70753 -0.353353
vn -0.703808 0.704219 -0.0934324
vn -0.749789 0.50042 -0.432892
vn -0.860287 0.496958 -0.113748
vn -0.749789 0.50042 -0.432892
vn -0.703808 0.704219 -0.0934324
vn -0.611999 0.70753 -0.353353
vn -0.432909 0.500416 -0.749783
vn -0.126317 0.256869 -0.958156
vn -0.482932 0.259101 -0.836447
vn -0.126317 0.256869 -0.958156
vn -0.432909 0.500416 -0.749783
vn -0.113766 0.496939 -0.860296
vn -0.749789 0.50042 -0.432892
vn -0.482932 0.259101 -0.836447
vn -0.836452 0.259101 -0.482923
vn -0.482932 0.259101 -0.836447
vn -0.749789 0.50042 -0.432892
vn -0.432909 0.500416 -0.749783
vn -0.860287 0.496958 -0.113748
vn -0.836452 0.259101 -0.482923
vn -0.958151 0.256886 -0.126319
vn -0.836452 0.259101 -0.482923
vn -0.860287 0.496958 -0.113748
vn -0.749789 0.50042 -0.432892
vn -0.482932 0.259101 -0.836447
vn -0.130259 0.0648683 -0.989356
vn -0.498925 0.0654326 -0.864172
vn -0.130259 0.0648683 -0.989356
vn -0.482932 0.259101 -0.836447
vn -0.126317 0.256869 -0.958156
vn -0.836452 0.259101 -0.482923
vn -0.498925 0.0654326 -0.864172
vn -0.86417 0.0654131 -0.49893
vn -0.498925 0.0654326 -0.864172
vn -0.836452 0.259101 -0.482923
vn -0.482932 0.259101 -0.836447
vn -0.958151 0.256886 -0.126319
vn -0.86417 0.0654131 -0.49893
vn -0.989356 0.0648306 -0.130278
vn -0.86417 0.0654131 -0.49893
vn -0.958151 0.256886 -0.126319
vn -0.836452 0.259101 -0.482923
vn 0.86417 0.0654131 -0.49893
vn 0.989356 -0.0648306 -0.130275
vn 0.864175 -0.065413 -0.498921
vn 0.989356 -0.0648306 -0.130275
vn 0.86417 0.0654131 -0.49893
vn 0.989356 0.0648306 -0.130278
vn 0.498925 0.0654326 -0.864172
vn 0.864175 -0.065413 -0.498921
vn 0.498929 -0.0654327 -0.864169
vn 0.864175 -0.065413 -0.498921
vn 0.498925 0.0654326 -0.864172
vn 0.86417 0.0654131 -0.49893
vn 0.498925 0.0654326 -0.864172
vn 0.130256 -0.0648683 -0.989356
vn 0.130259 0.0648683 -0.989356
vn 0.130256 -0.0648683 -0.989356
vn 0.498925 0.0654326 -0.864172
vn 0.498929 -0.0654327 -0.864169
vn 0.130259 0.0648683 -0.989356
vn -0.130256 -0.0648683 -0.989356
vn -0.130259 0.0648683 -0.989356
vn -0.130256 -0.0648683 -0.989356
vn 0.130259 0.0648683 -0.989356
vn 0.130256 -0.0648683 -0.989356
vn -0.130259 0.0648683 -0.989356
vn -0.498929 -0.0654327 -0.864169
vn -0.498925 0.0654326 -0.864172
vn -0.498929 -0.0654327 -0.864169
vn -0.130259 0.0648683 -0.989356
vn -0.130256 -0.0648683 -0.989356
vn -0.86417 0.0654131 -0.49893
vn -0.498929 -0.0654327 -0.864169
vn -0.864175 -0.065413 -0.498921
vn -0.498929 -0.0654327 -0.864169
vn -0.86417 0.0654131 -0.49893
vn -0.498925 0.0654326 -0.864172
vn -0.989356 0.0648306 -0.130278
vn -0.864175 -0.065413 -0.498921
vn -0.989356 -0.0648306 -0.130275
vn -0.864175 -0.065413 -0.498921
vn -0.989356 0.0648306 -0.130278
vn -0.86417 0.0654131 -0.49893
vn 0.864175 -0.065413 -0.498921
vn 0.95815 -0.256886 -0.126323
vn 0.83645 -0.259101 -0.482926
vn 0.95815 -0.256886 -0.126323
vn 0.864175 -0.065413 -0.498921
vn 0.989356 -0.0648306 -0.130275
vn 0.498929 -0.0654327 -0.864169
vn 0.83645 -0.259101 -0.482926
vn 0.482921 -0.259102 -0.836453
vn 0.83645 -0.259101 -0.482926
vn 0.498929 -0.0654327 -0.864169
vn 0.864175 -0.065413 -0.498921
vn 0.498929 -0.0654327 -0.864169
vn 0.126304 -0.256869 -0.958157
vn 0.130256 -0.0648683 -0.989356
vn 0.126304 -0.256869 -0.958157
vn 0.498929 -0.0654327 -0.864169
vn 0.482921 -0.259102 -0.836453
vn 0.83645 -0.259101 -0.482926
vn 0.860287 -0.496958 -0.113751
vn 0.749792 -0.500419 -0.43289
vn 0.860287 -0.496958 -0.113751
vn 0.83645 -0.259101 -0.482926
vn 0.95815 -0.256886 -0.126323
vn 0.482921 -0.259102 -0.836453
vn 0.749792 -0.500419 -0.43289
vn 0.432899 -0.500419 -0.749787
vn 0.749792 -0.500419 -0.43289
vn 0.482921 -0.259102 -0.836453
vn 0.83645 -0.259101 -0.482926
vn 0.482921 -0.259102 -0.836453
vn 0.113749 -0.496938 -0.860299
vn 0.126304 -0.256869 -0.958157
vn 0.113749 -0.496938 -0.860299
vn 0.482921 -0.259102 -0.836453
vn 0.432899 -0.500419 -0.749787
vn 0.749792 -0.500419 -0.43289
vn 0.703808 -0.704219 -0.0934352
vn 0.612008 -0.707528 -0.353342
vn 0.703808 -0.704219 -0.0934352
vn 0.749792 -0.500419 -0.43289
vn 0.860287 -0.496958 -0.113751
vn 0.749792 -0.500419 -0.43289
vn 0.353352 -0.707538 -0.611991
vn 0.432899 -0.500419 -0.749787
vn 0.353352 -0.707538 -0.611991
vn 0.749792 -0.500419 -0.43289
vn 0.612008 -0.707528 -0.353342
vn 0.432899 -0.500419 -0.749787
vn 0.0934465 -0.704243 -0.703783
vn 0.113749 -0.496938 -0.860299
vn 0.0934465 -0.704243 -0.703783
vn 0.432899 -0.500419 -0.749787
vn 0.353352 -0.707538 -0.611991
vn 0.703808 -0.704219 -0.0934352
vn 0.432613 -0.866288 -0.249782
vn 0.612008 -0.707528 -0.353342
vn 0.432613 -0.866288 -0.249782
vn 0.703808 -0.704219 -0.0934352
vn 0.498664 -0.864243 -0.0664707
vn 0.612008 -0.707528 -0.353342
vn 0.24978 -0.866282 -0.432626
vn 0.353352 -0.707538 -0.611991
vn 0.24978 -0.866282 -0.432626
vn 0.612008 -0.707528 -0.353342
vn 0.432613 -0.866288 -0.249782
vn 0.353352 -0.707538 -0.611991
vn 0.0664869 -0.864245 -0.498658
vn 0.0934465 -0.704243 -0.703783
vn 0.0664869 -0.864245 -0.498658
vn 0.353352 -0.707538 -0.611991
vn 0.24978 -0.866282 -0.432626
vn 0.498664 -0.864243 -0.0664707
vn 0.223893 -0.966003 -0.129266
vn 0.432613 -0.866288 -0.249782
vn 0.223893 -0.966003 -0.129266
vn 0.498664 -0.864243 -0.0664707
vn 0.258524 -0.965386 -0.0345641
vn 0.432613 -0.866288 -0.249782
vn 0.129262 -0.966002 -0.223899
vn 0.24978 -0.866282 -0.432626
vn 0.129262 -0.966002 -0.223899
vn 0.432613 -0.866288 -0.249782
vn 0.223893 -0.966003 -0.129266
vn 0.24978 -0.866282 -0.432626
vn 0.0345627 -0.965387 -0.258523
vn 0.0664869 -0.864245 -0.498658
vn 0.0345627 -0.965387 -0.258523
vn 0.24978 -0.866282 -0.432626
vn 0.129262 -0.966002 -0.223899
vn 0.0654124 -0.995712 -0.0654185
vn -0.0345627 -0.965387 -0.258523
vn 0.0345627 -0.965387 -0.258523
vn -0.0345627 -0.965387 -0.258523
vn 0.0654124 -0.995712 -0.0654185
vn -0.0654124 -0.995712 -0.0654185
vn 0.130256 -0.0648683 -0.989356
vn -0.126304 -0.256869 -0.958157
vn -0.130256 -0.0648683 -0.989356
vn -0.126304 -0.256869 -0.958157
vn 0.130256 -0.0648683 -0.989356
vn 0.126304 -0.256869 -0.958157
vn 0.126304 -0.256869 -0.958157
vn -0.113749 -0.496938 -0.860299
vn -0.126304 -0.256869 -0.958157
vn -0.113749 -0.496938 -0.860299
vn 0.126304 -0.256869 -0.958157
vn 0.113749 -0.496938 -0.860299
vn 0.113749 -0.496938 -0.860299
vn -0.0934465 -0.704243 -0.703783
vn -0.113749 -0.496938 -0.860299
vn -0.0934465 -0.704243 -0.703783
vn 0.113749 -0.496938 -0.860299
vn 0.0934465 -0.704243 -0.703783
vn 0.0664869 -0.864245 -0.498658
vn -0.0934465 -0.704243 -0.703783
vn 0.0934465 -0.704243 -0.703783
vn -0.0934465 -0.704243 -0.703783
vn 0.0664869 -0.864245 -0.498658
vn -0.0664869 -0.864245 -0.498658
vn 0.0345627 -0.965387 -0.258523
vn -0.0664869 -0.864245 -0.498658
vn 0.0664869 -0.864245 -0.498658
vn -0.0664869 -0.864245 -0.498658
vn 0.0345627 -0.965387 -0.258523
vn -0.0345627 -0.965387 -0.258523
vn -0.130256 -0.0648683 -0.989356
vn -0.482921 -0.259102 -0.836453
vn -0.498929 -0.0654327 -0.864169
vn -0.482921 -0.259102 -0.836453
vn -0.130256 -0.0648683 -0.989356
vn -0.126304 -0.256869 -0.958157
vn -0.864175 -0.065413 -0.498921
vn -0.482921 -0.259102 -0.836453
vn -0.83645 -0.259101 -0.482926
vn -0.482921 -0.259102 -0.836453
vn -0.864175 -0.065413 -0.498921
vn -0.498929 -0.0654327 -0.864169
vn -0.989356 -0.0648306 -0.130275
vn -0.83645 -0.259101 -0.482926
vn -0.95815 -0.256886 -0.126323
vn -0.83645 -0.259101 -0.482926
vn -0.989356 -0.0648306 -0.130275
vn -0.864175 -0.065413 -0.498921
vn -0.126304 -0.256869 -0.958157
vn -0.432899 -0.500419 -0.749787
vn -0.482921 -0.259102 -0.836453
vn -0.432899 -0.500419 -0.749787
vn -0.126304 -0.256869 -0.958157
vn -0.113749 -0.496938 -0.860299
vn -0.83645 -0.259101 -0.482926
vn -0.432899 -0.500419 -0.749787
vn -0.749792 -0.500419 -0.43289
vn -0.432899 -0.500419 -0.749787
vn -0.83645 -0.259101 -0.482926
vn -0.482921 -0.259102 -0.836453
vn -0.95815 -0.256886 -0.126323
vn -0.749792 -0.500419 -0.43289
vn -0.860287 -0.496958 -0.113751
vn -0.749792 -0.500419 -0.43289
vn -0.95815 -0.256886 -0.126323
vn -0.83645 -0.259101 -0.482926
vn -0.113749 -0.496938 -0.860299
vn -0.353352 -0.707538 -0.611991
vn -0.432899 -0.500419 -0.749787
vn -0.353352 -0.707538 -0.611991
vn -0.113749 -0.496938 -0.860299
vn -0.0934465 -0.704243 -0.703783
vn -0.353352 -0.707538 -0.611991
vn -0.749792 -0.500419 -0.43289
vn -0.432899 -0.500419 -0.749787
vn -0.749792 -0.500419 -0.43289
vn -0.353352 -0.707538 -0.611991
vn -0.612008 -0.707528 -0.353342
vn -0.860287 -0.496958 -0.113751
vn -0.612008 -0.707528 -0.353342
vn -0.703808 -0.704219 -0.0934352
vn -0.612008 -0.707528 -0.353342
vn -0.860287 -0.496958 -0.113751
vn -0.749792 -0.500419 -0.43289
vn -0.0664869 -0.864245 -0.498658
vn -0.353352 -0.707538 -0.611991
vn -0.0934465 -0.704243 -0.703783
vn -0.353352 -0.707538 -0.611991
vn -0.0664869 -0.864245 -0.498658
vn -0.24978 -0.866282 -0.432626
vn -0.24978 -0.866282 -0.432626
vn -0.612008 -0.707528 -0.353342
vn -0.353352 -0.707538 -0.611991
vn -0.612008 -0.707528 -0.353342
vn -0.24978 -0.866282 -0.432626
vn -0.432613 -0.866288 -0.249782
vn -0.432613 -0.866288 -0.249782
vn -0.703808 -0.704219 -0.0934352
vn -0.612008 -0.707528 -0.353342
vn -0.703808 -0.704219 -0.0934352
vn -0.432613 -0.866288 -0.249782
vn -0.498664 -0.864243 -0.0664707
vn -0.0345627 -0.965387 -0.258523
vn -0.24978 -0.866282 -0.432626
vn -0.0664869 -0.864245 -0.498658
vn -0.24978 -0.866282 -0.432626
vn -0.0345627 -0.965387 -0.258523
vn -0.129262 -0.966002 -0.223899
vn -0.129262 -0.966002 -0.223899
vn -0.432613 -0.866288 -0.249782
vn -0.24978 -0.866282 -0.432626
vn -0.432613 -0.866288 -0.249782
vn -0.129262 -0.966002 -0.223899
vn -0.223893 -0.966003 -0.129266
vn -0.223893 -0.966003 -0.129266
vn -0.498664 -0.864243 -0.0664707
vn -0.432613 -0.866288 -0.249782
vn -0.498664 -0.864243 -0.0664707
vn -0.223893 -0.966003 -0.129266
vn -0.258524 -0.965386 -0.0345641
vn 0.0654124 0.995712 0.0654185
vn 0.258522 0.965387 -0.0345716
vn 0.0654124 0.995712 -0.0654185
vn 0.258522 0.965387 -0.0345716
vn 0.0654124 0.995712 0.0654185
vn 0.258522 0.965387 0.0345716
vn 0.258522 0.965387 0.0345716
vn 0.498664 0.864243 -0.0664726
vn 0.258522 0.965387 -0.0345716
vn 0.498664 0.864243 -0.0664726
vn 0.258522 0.965387 0.0345716
vn 0.498664 0.864243 0.0664726
vn 0.498664 0.864243 0.0664726
vn 0.703808 0.704219 -0.0934324
vn 0.498664 0.864243 -0.0664726
vn 0.703808 0.704219 -0.0934324
vn 0.498664 0.864243 0.0664726
vn 0.703808 0.704219 0.0934324
vn 0.703808 0.704219 -0.0934324
vn 0.860287 0.496958 0.113748
vn 0.860287 0.496958 -0.113748
vn 0.860287 0.496958 0.113748
vn 0.703808 0.704219 -0.0934324
vn 0.703808 0.704219 0.0934324
vn 0.860287 0.496958 -0.113748
vn 0.958151 0.256886 0.126319
vn 0.958151 0.256886 -0.126319
vn 0.958151 0.256886 0.126319
vn 0.860287 0.496958 -0.113748
vn 0.860287 0.496958 0.113748
vn 0.958151 0.256886 -0.126319
vn 0.989356 0.0648306 0.130278
vn 0.989356 0.0648306 -0.130278
vn 0.989356 0.0648306 0.130278
vn 0.958151 0.256886 -0.126319
vn 0.958151 0.256886 0.126319
vn -0.0654124 0.995712 0.0654185
vn 0.0654124 0.995712 -0.0654185
vn -0.0654124 0.995712 -0.0654185
vn 0.0654124 0.995712 -0.0654185
vn -0.0654124 0.995712 0.0654185
vn 0.0654124 0.995712 0.0654185
vn -0.258522 0.965387 0.0345716
vn -0.0654124 0.995712 -0.0654185
vn -0.258522 0.965387 -0.0345716
vn -0.0654124 0.995712 -0.0654185
vn -0.258522 0.965387 0.0345716
vn -0.0654124 0.995712 0.0654185
vn -0.498664 0.864243 0.0664726
vn -0.258522 0.965387 -0.0345716
vn -0.498664 0.864243 -0.0664726
vn -0.258522 0.965387 -0.0345716
vn -0.498664 0.864243 0.0664726
vn -0.258522 0.965387 0.0345716
vn -0.703808 0.704219 0.0934324
vn -0.498664 0.864243 -0.0664726
vn -0.703808 0.704219 -0.0934324
vn -0.498664 0.864243 -0.0664726
vn -0.703808 0.704219 0.0934324
vn -0.498664 0.864243 0.0664726
vn -0.703808 0.704219 0.0934324
vn -0.860287 0.496958 -0.113748
vn -0.860287 0.496958 0.113748
vn -0.860287 0.496958 -0.113748
vn -0.703808 0.704219 0.0934324
vn -0.703808 0.704219 -0.0934324
vn -0.860287 0.496958 0.113748
vn -0.958151 0.256886 -0.126319
vn -0.958151 0.256886 0.126319
vn -0.958151 0.256886 -0.126319
vn -0.860287 0.496958 0.113748
vn -0.860287 0.496958 -0.113748
vn -0.958151 0.256886 0.126319
vn -0.989356 0.0648306 -0.130278
vn -0.989356 0.0648306 0.130278
vn -0.989356 0.0648306 -0.130278
vn -0.958151 0.256886 0.126319
vn -0.958151 0.256886 -0.126319
vn 0.989356 0.0648306 -0.130278
vn 0.989356 -0.0648306 0.130275
vn 0.989356 -0.0648306 -0.130275
vn 0.989356 -0.0648306 0.130275
vn 0.989356 0.0648306 -0.130278
vn 0.989356 0.0648306 0.130278
vn -0.989356 0.0648306 0.130278
vn -0.989356 -0.0648306 -0.130275
vn -0.989356 -0.0648306 0.130275
vn -0.989356 -0.0648306 -0.130275
vn -0.989356 0.0648306 0.130278
vn -0.989356 0.0648306 -0.130278
vn 0.258524 -0.965386 0.0345641
vn 0.0654124 -0.995712 -0.0654185
vn 0.258524 -0.965386 -0.0345641
vn 0.0654124 -0.995712 -0.0654185
vn 0.258524 -0.965386 0.0345641
vn 0.0654124 -0.995712 0.0654185
vn 0.989356 -0.0648306 -0.130275
vn 0.95815 -0.256886 0.126323
vn 0.95815 -0.256886 -0.126323
vn 0.95815 -0.256886 0.126323
vn 0.989356 -0.0648306 -0.130275
vn 0.989356 -0.0648306 0.130275
vn 0.95815 -0.256886 -0.126323
vn 0.860287 -0.496958 0.113751
vn 0.860287 -0.496958 -0.113751
vn 0.860287 -0.496958 0.113751
vn 0.95815 -0.256886 -0.126323
vn 0.95815 -0.256886 0.126323
vn 0.860287 -0.496958 -0.113751
vn 0.703808 -0.704219 0.0934352
vn 0.703808 -0.704219 -0.0934352
vn 0.703808 -0.704219 0.0934352
vn 0.860287 -0.496958 -0.113751
vn 0.860287 -0.496958 0.113751
vn 0.703808 -0.704219 0.0934352
vn 0.498664 -0.864243 -0.0664707
vn 0.703808 -0.704219 -0.0934352
vn 0.498664 -0.864243 -0.0664707
vn 0.703808 -0.704219 0.0934352
vn 0.498664 -0.864243 0.0664707
vn 0.498664 -0.864243 0.0664707
vn 0.258524 -0.965386 -0.0345641
vn 0.498664 -0.864243 -0.0664707
vn 0.258524 -0.965386 -0.0345641
vn 0.498664 -0.864243 0.0664707
vn 0.258524 -0.965386 0.0345641
vn 0.0654124 -0.995712 0.0654185
vn -0.0654124 -0.995712 -0.0654185
vn 0.0654124 -0.995712 -0.0654185
vn -0.0654124 -0.995712 -0.0654185
vn 0.0654124 -0.995712 0.0654185
vn -0.0654124 -0.995712 0.0654185
vn -0.0654124 -0.995712 0.0654185
vn -0.258524 -0.965386 -0.0345641
vn -0.0654124 -0.995712 -0.0654185
vn -0.258524 -0.965386 -0.0345641
vn -0.0654124 -0.995712 0.0654185
vn -0.258524 -0.965386 0.0345641
vn -0.989356 -0.0648306 0.130275
vn -0.95815 -0.256886 -0.126323
vn -0.95815 -0.256886 0.126323
vn -0.95815 -0.256886 -0.126323
vn -0.989356 -0.0648306 0.130275
vn -0.989356 -0.0648306 -0.130275
vn -0.95815 -0.256886 0.126323
vn -0.860287 -0.496958 -0.113751
vn -0.860287 -0.496958 0.113751
vn -0.860287 -0.496958 -0.113751
vn -0.95815 -0.256886 0.126323
vn -0.95815 -0.256886 -0.126323
vn -0.860287 -0.496958 0.113751
vn -0.703808 -0.704219 -0.0934352
vn -0.703808 -0.704219 0.0934352
vn -0.703808 -0.704219 -0.0934352
vn -0.860287 -0.496958 0.113751
vn -0.860287 -0.496958 -0.113751
vn -0.498664 -0.864243 0.0664707
vn -0.703808 -0.704219 -0.0934352
vn -0.498664 -0.864243 -0.0664707
vn -0.703808 -0.704219 -0.0934352
vn -0.498664 -0.864243 0.0664707
vn -0.703808 -0.704219 0.0934352
vn -0.258524 -0.965386 0.0345641
vn -0.498664 -0.864243 -0.0664707
vn -0.258524 -0.965386 -0.0345641
vn -0.498664 -0.864243 -0.0664707
vn -0.258524 -0.965386 0.0345641
vn -0.498664 -0.864243 0.0664707
vn 0.0345358 0.965386 0.25853
vn 0.249761 0.866287 0.432627
vn 0.129247 0.966005 0.223896
vn 0.249761 0.866287 0.432627
vn 0.0345358 0.965386 0.25853
vn 0.0664573 0.864244 0.498664
vn 0.129247 0.966005 0.223896
vn 0.432621 0.866287 0.249773
vn 0.223902 0.966002 0.129262
vn 0.432621 0.866287 0.249773
vn 0.129247 0.966005 0.223896
vn 0.249761 0.866287 0.432627
vn 0.223902 0.966002 0.129262
vn 0.498664 0.864243 0.0664726
vn 0.258522 0.965387 0.0345716
vn 0.498664 0.864243 0.0664726
vn 0.223902 0.966002 0.129262
vn 0.432621 0.866287 0.249773
vn 0.0664573 0.864244 0.498664
vn 0.353344 0.707535 0.611999
vn 0.249761 0.866287 0.432627
vn 0.353344 0.707535 0.611999
vn 0.0664573 0.864244 0.498664
vn 0.0934512 0.704243 0.703782
vn 0.249761 0.866287 0.432627
vn 0.611999 0.70753 0.353353
vn 0.432621 0.866287 0.249773
vn 0.611999 0.70753 0.353353
vn 0.249761 0.866287 0.432627
vn 0.353344 0.707535 0.611999
vn 0.432621 0.866287 0.249773
vn 0.703808 0.704219 0.0934324
vn 0.498664 0.864243 0.0664726
vn 0.703808 0.704219 0.0934324
vn 0.432621 0.866287 0.249773
vn 0.611999 0.70753 0.353353
vn 0.432909 0.500416 0.749783
vn 0.0934512 0.704243 0.703782
vn 0.113766 0.496939 0.860296
vn 0.0934512 0.704243 0.703782
vn 0.432909 0.500416 0.749783
vn 0.353344 0.707535 0.611999
vn 0.353344 0.707535 0.611999
vn 0.749789 0.50042 0.432892
vn 0.611999 0.70753 0.353353
vn 0.749789 0.50042 0.432892
vn 0.353344 0.707535 0.611999
vn 0.432909 0.500416 0.749783
vn 0.703808 0.704219 0.0934324
vn 0.749789 0.50042 0.432892
vn 0.860287 0.496958 0.113748
vn 0.749789 0.50042 0.432892
vn 0.703808 0.704219 0.0934324
vn 0.611999 0.70753 0.353353
vn 0.482932 0.259101 0.836447
vn 0.113766 0.496939 0.860296
vn 0.126317 0.256869 0.958156
vn 0.113766 0.496939 0.860296
vn 0.482932 0.259101 0.836447
vn 0.432909 0.500416 0.749783
vn 0.749789 0.50042 0.432892
vn 0.482932 0.259101 0.836447
vn 0.836452 0.259101 0.482923
vn 0.482932 0.259101 0.836447
vn 0.749789 0.50042 0.432892
vn 0.432909 0.500416 0.749783
vn 0.860287 0.496958 0.113748
vn 0.836452 0.259101 0.482923
vn 0.958151 0.256886 0.126319
vn 0.836452 0.259101 0.482923
vn 0.860287 0.496958 0.113748
vn 0.749789 0.50042 0.432892
vn 0.498925 0.0654326 0.864172
vn 0.126317 0.256869 0.958156
vn 0.130259 0.0648683 0.989356
vn 0.126317 0.256869 0.958156
vn 0.498925 0.0654326 0.864172
vn 0.482932 0.259101 0.836447
vn 0.836452 0.259101 0.482923
vn 0.498925 0.0654326 0.864172
vn 0.86417 0.0654131 0.49893
vn 0.498925 0.0654326 0.864172
vn 0.836452 0.259101 0.482923
vn 0.482932 0.259101 0.836447
vn 0.958151 0.256886 0.126319
vn 0.86417 0.0654131 0.49893
vn 0.989356 0.0648306 0.130278
vn 0.86417 0.0654131 0.49893
vn 0.958151 0.256886 0.126319
vn 0.836452 0.259101 0.482923
vn -0.0345358 0.965386 0.25853
vn 0.0654124 0.995712 0.0654185
vn -0.0654124 0.995712 0.0654185
vn 0.0654124 0.995712 0.0654185
vn -0.0345358 0.965386 0.25853
vn 0.0345358 0.965386 0.25853
vn -0.0664573 0.864244 0.498664
vn 0.0345358 0.965386 0.25853
vn -0.0345358 0.965386 0.25853
vn 0.0345358 0.965386 0.25853
vn -0.0664573 0.864244 0.498664
vn 0.0664573 0.864244 0.498664
vn -0.0934512 0.704243 0.703782
vn 0.0664573 0.864244 0.498664
vn -0.0664573 0.864244 0.498664
vn 0.0664573 0.864244 0.498664
vn -0.0934512 0.704243 0.703782
vn 0.0934512 0.704243 0.703782
vn 0.113766 0.496939 0.860296
vn -0.0934512 0.704243 0.703782
vn -0.113766 0.496939 0.860296
vn -0.0934512 0.704243 0.703782
vn 0.113766 0.496939 0.860296
vn 0.0934512 0.704243 0.703782
vn 0.126317 0.256869 0.958156
vn -0.113766 0.496939 0.860296
vn -0.126317 0.256869 0.958156
vn -0.113766 0.496939 0.860296
vn 0.126317 0.256869 0.958156
vn 0.113766 0.496939 0.860296
vn 0.130259 0.0648683 0.989356
vn -0.126317 0.256869 0.958156
vn -0.130259 0.0648683 0.989356
vn -0.126317 0.256869 0.958156
vn 0.130259 0.0648683 0.989356
vn 0.126317 0.256869 0.958156
vn -0.432621 0.866287 0.249773
vn -0.258522 0.965387 0.0345716
vn -0.498664 0.864243 0.0664726
vn -0.258522 0.965387 0.0345716
vn -0.432621 0.866287 0.249773
vn -0.223902 0.966002 0.129262
vn -0.432621 0.866287 0.249773
vn -0.129247 0.966005 0.223896
vn -0.223902 0.966002 0.129262
vn -0.129247 0.966005 0.223896
vn -0.432621 0.866287 0.249773
vn -0.249761 0.866287 0.432627
vn -0.249761 0.866287 0.432627
vn -0.0345358 0.965386 0.25853
vn -0.129247 0.966005 0.223896
vn -0.0345358 0.965386 0.25853
vn -0.249761 0.866287 0.432627
vn -0.0664573 0.864244 0.498664
vn -0.611999 0.70753 0.353353
vn -0.498664 0.864243 0.0664726
vn -0.703808 0.704219 0.0934324
vn -0.498664 0.864243 0.0664726
vn -0.611999 0.70753 0.353353
vn -0.432621 0.866287 0.249773
vn -0.611999 0.70753 0.353353
vn -0.249761 0.866287 0.432627
vn -0.432621 0.866287 0.249773
vn -0.249761 0.866287 0.432627
vn -0.611999 0.70753 0.353353
vn -0.353344 0.707535 0.611999
vn -0.353344 0.707535 0.611999
vn -0.0664573 0.864244 0.498664
vn -0.249761 0.866287 0.432627
vn -0.0664573 0.864244 0.498664
vn -0.353344 0.707535 0.611999
vn -0.0934512 0.704243 0.703782
vn -0.611999 0.70753 0.353353
vn -0.860287 0.496958 0.113748
vn -0.749789 0.50042 0.432892
vn -0.860287 0.496958 0.113748
vn -0.611999 0.70753 0.353353
vn -0.703808 0.704219 0.0934324
vn -0.749789 0.50042 0.432892
vn -0.353344 0.707535 0.611999
vn -0.611999 0.70753 0.353353
vn -0.353344 0.707535 0.611999
vn -0.749789 0.50042 0.432892
vn -0.432909 0.500416 0.749783
vn -0.113766 0.496939 0.860296
vn -0.353344 0.707535 0.611999
vn -0.432909 0.500416 0.749783
vn -0.353344 0.707535 0.611999
vn -0.113766 0.496939 0.860296
vn -0.0934512 0.704243 0.703782
vn -0.749789 0.50042 0.432892
vn -0.958151 0.256886 0.126319
vn -0.836452 0.259101 0.482923
vn -0.958151 0.256886 0.126319
vn -0.749789 0.50042 0.432892
vn -0.860287 0.496958 0.113748
vn -0.432909 0.500416 0.749783
vn -0.836452 0.259101 0.482923
vn -0.482932 0.259101 0.836447
vn -0.836452 0.259101 0.482923
vn -0.432909 0.500416 0.749783
vn -0.749789 0.50042 0.432892
vn -0.126317 0.256869 0.958156
vn -0.432909 0.500416 0.749783
vn -0.482932 0.259101 0.836447
vn -0.432909 0.500416 0.749783
vn -0.126317 0.256869 0.958156
vn -0.113766 0.496939 0.860296
vn -0.836452 0.259101 0.482923
vn -0.989356 0.0648306 0.130278
vn -0.86417 0.0654131 0.49893
vn -0.989356 0.0648306 0.130278
vn -0.836452 0.259101 0.482923
vn -0.958151 0.256886 0.126319
vn -0.482932 0.259101 0.836447
vn -0.86417 0.0654131 0.49893
vn -0.498925 0.0654326 0.864172
vn -0.86417 0.0654131 0.49893
vn -0.482932 0.259101 0.836447
vn -0.836452 0.259101 0.482923
vn -0.130259 0.0648683 0.989356
vn -0.482932 0.259101 0.836447
vn -0.498925 0.0654326 0.864172
vn -0.482932 0.259101 0.836447
vn -0.130259 0.0648683 0.989356
vn -0.126317 0.256869 0.958156
vn 0.498929 -0.0654327 0.864169
vn 0.130259 0.0648683 0.989356
vn 0.130256 -0.0648683 0.989356
vn 0.130259 0.0648683 0.989356
vn 0.498929 -0.0654327 0.864169
vn 0.498925 0.0654326 0.864172
vn 0.86417 0.0654131 0.49893
vn 0.498929 -0.0654327 0.864169
vn 0.864175 -0.065413 0.498921
vn 0.498929 -0.0654327 0.864169
vn 0.86417 0.0654131 0.49893
vn 0.498925 0.0654326 0.864172
vn 0.989356 0.0648306 0.130278
vn 0.864175 -0.065413 0.498921
vn 0.989356 -0.0648306 0.130275
vn 0.864175 -0.065413 0.498921
vn 0.989356 0.0648306 0.130278
vn 0.86417 0.0654131 0.49893
vn 0.130256 -0.0648683 0.989356
vn -0.130259 0.0648683 0.989356
vn -0.130256 -0.0648683 0.989356
vn -0.130259 0.0648683 0.989356
vn 0.130256 -0.0648683 0.989356
vn 0.130259 0.0648683 0.989356
vn -0.86417 0.0654131 0.49893
vn -0.989356 -0.0648306 0.130275
vn -0.864175 -0.065413 0.498921
vn -0.989356 -0.0648306 0.130275
vn -0.86417 0.0654131 0.49893
vn -0.989356 0.0648306 0.130278
vn -0.498925 0.0654326 0.864172
vn -0.864175 -0.065413 0.498921
vn -0.498929 -0.0654327 0.864169
vn -0.864175 -0.065413 0.498921
vn -0.498925 0.0654326 0.864172
vn -0.86417 0.0654131 0.49893
vn -0.130256 -0.0648683 0.989356
vn -0.498925 0.0654326 0.864172
vn -0.498929 -0.0654327 0.864169
vn -0.498925 0.0654326 0.864172
vn -0.130256 -0.0648683 0.989356
vn -0.130259 0.0648683 0.989356
vn 0.482921 -0.259102 0.836453
vn 0.130256 -0.0648683 0.989356
vn 0.126304 -0.256869 0.958157
vn 0.130256 -0.0648683 0.989356
vn 0.482921 -0.259102 0.836453
vn 0.498929 -0.0654327 0.864169
vn 0.864175 -0.065413 0.498921
vn 0.482921 -0.259102 0.836453
vn 0.83645 -0.259101 0.482926
vn 0.482921 -0.259102 0.836453
vn 0.864175 -0.065413 0.498921
vn 0.498929 -0.0654327 0.864169
vn 0.989356 -0.0648306 0.130275
vn 0.83645 -0.259101 0.482926
vn 0.95815 -0.256886 0.126322
vn 0.83645 -0.259101 0.482926
vn 0.989356 -0.0648306 0.130275
vn 0.864175 -0.065413 0.498921
vn 0.432899 -0.500419 0.749787
vn 0.126304 -0.256869 0.958157
vn 0.113749 -0.496938 0.860299
vn 0.126304 -0.256869 0.958157
vn 0.432899 -0.500419 0.749787
vn 0.482921 -0.259102 0.836453
vn 0.83645 -0.259101 0.482926
vn 0.432899 -0.500419 0.749787
vn 0.749792 -0.500419 0.43289
vn 0.432899 -0.500419 0.749787
vn 0.83645 -0.259101 0.482926
vn 0.482921 -0.259102 0.836453
vn 0.95815 -0.256886 0.126322
vn 0.749792 -0.500419 0.43289
vn 0.860287 -0.496958 0.113751
vn 0.749792 -0.500419 0.43289
vn 0.95815 -0.256886 0.126322
vn 0.83645 -0.259101 0.482926
vn 0.353352 -0.707538 0.611991
vn 0.113749 -0.496938 0.860299
vn 0.0934465 -0.704243 0.703783
vn 0.113749 -0.496938 0.860299
vn 0.353352 -0.707538 0.611991
vn 0.432899 -0.500419 0.749787
vn 0.749792 -0.500419 0.43289
vn 0.353352 -0.707538 0.611991
vn 0.612008 -0.707528 0.353342
vn 0.353352 -0.707538 0.611991
vn 0.749792 -0.500419 0.43289
vn 0.432899 -0.500419 0.749787
vn 0.860287 -0.496958 0.113751
vn 0.612008 -0.707528 0.353342
vn 0.703808 -0.704219 0.0934352
vn 0.612008 -0.707528 0.353342
vn 0.860287 -0.496958 0.113751
vn 0.749792 -0.500419 0.43289
vn 0.353352 -0.707538 0.611991
vn 0.0664869 -0.864245 0.498658
vn 0.24978 -0.866282 0.432626
vn 0.0664869 -0.864245 0.498658
vn 0.353352 -0.707538 0.611991
vn 0.0934465 -0.704243 0.703783
vn 0.612008 -0.707528 0.353342
vn 0.24978 -0.866282 0.432626
vn 0.432613 -0.866288 0.249782
vn 0.24978 -0.866282 0.432626
vn 0.612008 -0.707528 0.353342
vn 0.353352 -0.707538 0.611991
vn 0.612008 -0.707528 0.353342
vn 0.498664 -0.864243 0.0664707
vn 0.703808 -0.704219 0.0934352
vn 0.498664 -0.864243 0.0664707
vn 0.612008 -0.707528 0.353342
vn 0.432613 -0.866288 0.249782
vn 0.24978 -0.866282 0.432626
vn 0.0345627 -0.965387 0.258523
vn 0.129262 -0.966002 0.223899
vn 0.0345627 -0.965387 0.258523
vn 0.24978 -0.866282 0.432626
vn 0.0664869 -0.864245 0.498658
vn 0.432613 -0.866288 0.249782
vn 0.129262 -0.966002 0.223899
vn 0.223893 -0.966003 0.129266
vn 0.129262 -0.966002 0.223899
vn 0.432613 -0.866288 0.249782
vn 0.24978 -0.866282 0.432626
vn 0.432613 -0.866288 0.249782
vn 0.258524 -0.965386 0.0345641
vn 0.498664 -0.864243 0.0664707
vn 0.258524 -0.965386 0.0345641
vn 0.432613 -0.866288 0.249782
vn 0.223893 -0.966003 0.129266
vn 0.0345627 -0.965387 0.258523
vn -0.0654124 -0.995712 0.0654185
vn 0.0654124 -0.995712 0.0654185
vn -0.0654124 -0.995712 0.0654185
vn 0.0345627 -0.965387 0.258523
vn -0.0345627 -0.965387 0.258523
vn 0.126304 -0.256869 0.958157
vn -0.130256 -0.0648683 0.989356
vn -0.126304 -0.256869 0.958157
vn -0.130256 -0.0648683 0.989356
vn 0.126304 -0.256869 0.958157
vn 0.130256 -0.0648683 0.989356
vn 0.113749 -0.496938 0.860299
vn -0.126304 -0.256869 0.958157
vn -0.113749 -0.496938 0.860299
vn -0.126304 -0.256869 0.958157
vn 0.113749 -0.496938 0.860299
vn 0.126304 -0.256869 0.958157
vn 0.0934465 -0.704243 0.703783
vn -0.113749 -0.496938 0.860299
vn -0.0934465 -0.704243 0.703783
vn -0.113749 -0.496938 0.860299
vn 0.0934465 -0.704243 0.703783
vn 0.113749 -0.496938 0.860299
vn 0.0934465 -0.704243 0.703783
vn -0.0664869 -0.864245 0.498658
vn 0.0664869 -0.864245 0.498658
vn -0.0664869 -0.864245 0.498658
vn 0.0934465 -0.704243 0.703783
vn -0.0934465 -0.704243 0.703783
vn 0.0664869 -0.864245 0.498658
vn -0.0345627 -0.965387 0.258523
vn 0.0345627 -0.965387 0.258523
vn -0.0345627 -0.965387 0.258523
vn 0.0664869 -0.864245 0.498658
vn -0.0664869 -0.864245 0.498658
vn -0.864175 -0.065413 0.498921
vn -0.95815 -0.256886 0.126322
vn -0.83645 -0.259101 0.482926
vn -0.95815 -0.256886 0.126322
vn -0.864175 -0.065413 0.498921
vn -0.989356 -0.0648306 0.130275
vn -0.498929 -0.0654327 0.864169
vn -0.83645 -0.259101 0.482926
vn -0.482921 -0.259102 0.836453
vn -0.83645 -0.259101 0.482926
vn -0.498929 -0.0654327 0.864169
vn -0.864175 -0.065413 0.498921
vn -0.482921 -0.259102 0.836453
vn -0.130256 -0.0648683 0.989356
vn -0.498929 -0.0654327 0.864169
vn -0.130256 -0.0648683 0.989356
vn -0.482921 -0.259102 0.836453
vn -0.126304 -0.256869 0.958157
vn -0.83645 -0.259101 0.482926
vn -0.860287 -0.496958 0.113751
vn -0.749792 -0.500419 0.43289
vn -0.860287 -0.496958 0.113751
vn -0.83645 -0.259101 0.482926
vn -0.95815 -0.256886 0.126322
vn -0.482921 -0.259102 0.836453
vn -0.749792 -0.500419 0.43289
vn -0.432899 -0.500419 0.749787
vn -0.749792 -0.500419 0.43289
vn -0.482921 -0.259102 0.836453
vn -0.83645 -0.259101 0.482926
vn -0.432899 -0.500419 0.749787
vn -0.126304 -0.256869 0.958157
vn -0.482921 -0.259102 0.836453
vn -0.126304 -0.256869 0.958157
vn -0.432899 -0.500419 0.749787
vn -0.113749 -0.496938 0.860299
vn -0.749792 -0.500419 0.43289
vn -0.703808 -0.704219 0.0934352
vn -0.612008 -0.707528 0.353342
vn -0.703808 -0.704219 0.0934352
vn -0.749792 -0.500419 0.43289
vn -0.860287 -0.496958 0.113751
vn -0.353352 -0.707538 0.611991
vn -0.749792 -0.500419 0.43289
vn -0.612008 -0.707528 0.353342
vn -0.749792 -0.500419 0.43289
vn -0.353352 -0.707538 0.611991
vn -0.432899 -0.500419 0.749787
vn -0.353352 -0.707538 0.611991
vn -0.113749 -0.496938 0.860299
vn -0.432899 -0.500419 0.749787
vn -0.113749 -0.496938 0.860299
vn -0.353352 -0.707538 0.611991
vn -0.0934465 -0.704243 0.703783
vn -0.432613 -0.866288 0.249782
vn -0.703808 -0.704219 0.0934352
vn -0.498664 -0.864243 0.0664707
vn -0.703808 -0.704219 0.0934352
vn -0.432613 -0.866288 0.249782
vn -0.612008 -0.707528 0.353342
vn -0.24978 -0.866282 0.432626
vn -0.612008 -0.707528 0.353342
vn -0.432613 -0.866288 0.249782
vn -0.612008 -0.707528 0.353342
vn -0.24978 -0.866282 0.432626
vn -0.353352 -0.707538 0.611991
vn -0.0664869 -0.864245 0.498658
vn -0.353352 -0.707538 0.611991
vn -0.24978 -0.866282 0.432626
vn -0.353352 -0.707538 0.611991
vn -0.0664869 -0.864245 0.498658
vn -0.0934465 -0.704243 0.703783
vn -0.223893 -0.966003 0.129266
vn -0.498664 -0.864243 0.0664707
vn -0.258524 -0.965386 0.0345641
vn -0.498664 -0.864243 0.0664707
vn -0.223893 -0.966003 0.129266
vn -0.432613 -0.866288 0.249782
vn -0.129262 -0.966002 0.223899
vn -0.432613 -0.866288 0.249782
vn -0.223893 -0.966003 0.129266
vn -0.432613 -0.866288 0.249782
vn -0.129262 -0.966002 0.223899
vn -0.24978 -0.866282 0.432626
vn -0.0345627 -0.965387 0.258523
vn -0.24978 -0.866282 0.432626
vn -0.129262 -0.966002 0.223899
vn -0.24978 -0.866282 0.432626
vn -0.0345627 -0.965387 0.258523
vn -0.0664869 -0.864245 0.498658
vn 0.0654124 0.995712 -0.0654185
vn 0.258522 0.965387 -0.0345716
vn 0.223902 0.966002 -0.129262
vn 0.0654124 0.995712 -0.0654185
vn 0.223902 0.966002 -0.129262
vn 0.129247 0.966005 -0.223896
vn 0.0654124 0.995712 -0.0654185
vn 0.129247 0.966005 -0.223896
vn 0.0345358 0.965386 -0.25853
vn -0.0654124 0.995712 -0.0654185
vn -0.0345358 0.965386 -0.25853
vn -0.129247 0.966005 -0.223896
vn -0.0654124 0.995712 -0.0654185
vn -0.129247 0.966005 -0.223896
vn -0.223902 0.966002 -0.129262
vn -0.0654124 0.995712 -0.0654185
vn -0.223902 0.966002 -0.129262
vn -0.258522 0.965387 -0.0345716
vn 0.0654124 -0.995712 -0.0654185
vn 0.223893 -0.966003 -0.129266
vn 0.258524 -0.965386 -0.0345641
vn 0.0654124 -0.995712 -0.0654185
vn 0.129262 -0.966002 -0.223899
vn 0.223893 -0.966003 -0.129266
vn 0.0654124 -0.995712 -0.0654185
vn 0.0345627 -0.965387 -0.258523
vn 0.129262 -0.966002 -0.223899
vn -0.0654124 -0.995712 -0.0654185
vn -0.129262 -0.966002 -0.223899
vn -0.0345627 -0.965387 -0.258523
vn -0.0654124 -0.995712 -0.0654185
vn -0.223893 -0.966003 -0.129266
vn -0.129262 -0.966002 -0.223899
vn -0.0654124 -0.995712 -0.0654185
vn -0.258524 -0.965386 -0.0345641
vn -0.223893 -0.966003 -0.129266
vn 0.0654124 0.995712 0.0654185
vn 0.0345358 0.965386 0.25853
vn 0.129247 0.966005 0.223896
vn 0.0654124 0.995712 0.0654185
vn 0.129247 0.966005 0.223896
vn 0.223902 0.966002 0.129262
vn 0.0654124 0.995712 0.0654185
vn 0.223902 0.966002 0.129262
vn 0.258522 0.965387 0.0345716
vn -0.0654124 0.995712 0.0654185
vn -0.258522 0.965387 0.0345716
vn -0.223902 0.966002 0.129262
vn -0.0654124 0.995712 0.0654185
vn -0.223902 0.966002 0.129262
vn -0.129247 0.966005 0.223896
vn -0.0654124 0.995712 0.0654185
vn -0.129247 0.966005 0.223896
vn -0.0345358 0.965386 0.25853
vn 0.0654124 -0.995712 0.0654185
vn 0.129262 -0.966002 0.223899
vn 0.0345627 -0.965387 0.258523
vn 0.0654124 -0.995712 0.0654185
vn 0.223893 -0.966003 0.129266
vn 0.129262 -0.966002 0.223899
vn 0.0654124 -0.995712 0.0654185
vn 0.258524 -0.965386 0.0345641
vn 0.223893 -0.966003 0.129266
vn -0.0654124 -0.995712 0.0654185
vn -0.223893 -0.966003 0.129266
vn -0.258524 -0.965386 0.0345641
vn -0.0654124 -0.995712 0.0654185
vn -0.129262 -0.966002 0.223899
vn -0.223893 -0.966003 0.129266
vn -0.0654124 -0.995712 0.0654185
vn -0.0345627 -0.965387 0.258523
vn -0.129262 -0.966002 0.223899
vt 0.0833333 0.916667
vt -2.98023e-008 0.833333
vt 0.0833333 0.833333
vt -2.98023e-008 0.833333
vt 0.0833333 0.916667
vt -2.98023e-008 0.916667
vt 0.166667 0.916667
vt 0.0833333 0.833333
vt 0.166667 0.833333
vt 0.0833333 0.833333
vt 0.166667 0.916667
vt 0.0833333 0.916667
vt 0.25 0.916667
vt 0.166667 0.833333
vt 0.25 0.833333
vt 0.166667 0.833333
vt 0.25 0.916667
vt 0.166667 0.916667
vt 0.0833333 0.833333
vt -2.98023e-008 0.75
vt 0.0833333 0.75
vt -2.98023e-008 0.75
vt 0.0833333 0.833333
vt -2.98023e-008 0.833333
vt 0.166667 0.833333
vt 0.0833333 0.75
vt 0.166667 0.75
vt 0.0833333 0.75
vt 0.166667 0.833333
vt 0.0833333 0.833333
vt 0.25 0.833333
vt 0.166667 0.75
vt 0.25 0.75
vt 0.166667 0.75
vt 0.25 0.833333
vt 0.166667 0.833333
vt 0.0833333 0.75
vt -2.98023e-008 0.666667
vt 0.0833333 0.666667
vt -2.98023e-008 0.666667
vt 0.0833333 0.75
vt -2.98023e-008 0.75
vt 0.166667 0.75
vt 0.0833333 0.666667
vt 0.166667 0.666667
vt 0.0833333 0.666667
vt 0.166667 0.75
vt 0.0833333 0.75
vt 0.166667 0.75
vt 0.25 0.666667
vt 0.25 0.75
vt 0.25 0.666667
vt 0.166667 0.75
vt 0.166667 0.666667
vt 0.0833333 0.666667
vt -2.98023e-008 0.583333
vt 0.0833333 0.583333
vt -2.98023e-008 0.583333
vt 0.0833333 0.666667
vt -2.98023e-008 0.666667
vt 0.166667 0.666667
vt 0.0833333 0.583333
vt 0.166667 0.583333
vt 0.0833333 0.583333
vt 0.166667 0.666667
vt 0.0833333 0.666667
vt 0.166667 0.666667
vt 0.25 0.583333
vt 0.25 0.666667
vt 0.25 0.583333
vt 0.166667 0.666667
vt 0.166667 0.583333
vt 0.0833333 0.583333
vt -2.98023e-008 0.5
vt 0.0833333 0.5
vt -2.98023e-008 0.5
vt 0.0833333 0.583333
vt -2.98023e-008 0.583333
vt 0.166667 0.583333
vt 0.0833333 0.5
vt 0.166667 0.5
vt 0.0833333 0.5
vt 0.166667 0.583333
vt 0.0833333 0.583333
vt 0.166667 0.583333
vt 0.25 0.5
vt 0.25 0.583333
vt 0.25 0.5
vt 0.166667 0.583333
vt 0.166667 0.5
vt 0 0
vt 0 0
vt 0 0
vt 0 0
vt 0 0
vt 0 0
vt 0 0
vt 0 0
vt 0 0
vt 0 0
vt 0 0
vt 0 0
vt 0 0
vt 0 0
vt 0 0
vt 0 0
vt 0 0
vt 0 0
vt 0 0
vt 0 0
vt 0 0
vt 0 0
vt 0 0
vt 0 0
vt 0 0
vt 0 0
vt 0 0
vt 0 0
vt 0 0
vt 0 0
vt 0 0
vt 0 0
vt 0 0
vt 0 0
vt 0 0
vt 0 0
vt 0.333333 0.833333
vt 0.25 0.916667
vt 0.25 0.833333
vt 0.25 0.916667
vt 0.333333 0.833333
vt 0.333333 0.916667
vt 0.416667 0.833333
vt 0.333333 0.916667
vt 0.333333 0.833333
vt 0.333333 0.916667
vt 0.416667 0.833333
vt 0.416667 0.916667
vt 0.5 0.833333
vt 0.416667 0.916667
vt 0.416667 0.833333
vt 0.416667 0.916667
vt 0.5 0.833333
vt 0.5 0.916667
vt 0.333333 0.75
vt 0.25 0.833333
vt 0.25 0.75
vt 0.25 0.833333
vt 0.333333 0.75
vt 0.333333 0.833333
vt 0.416667 0.75
vt 0.333333 0.833333
vt 0.333333 0.75
vt 0.333333 0.833333
vt 0.416667 0.75
vt 0.416667 0.833333
vt 0.5 0.75
vt 0.416667 0.833333
vt 0.416667 0.75
vt 0.416667 0.833333
vt 0.5 0.75
vt 0.5 0.833333
vt 0.333333 0.75
vt 0.25 0.666667
vt 0.333333 0.666667
vt 0.25 0.666667
vt 0.333333 0.75
vt 0.25 0.75
vt 0.416667 0.666667
vt 0.333333 0.75
vt 0.333333 0.666667
vt 0.333333 0.75
vt 0.416667 0.666667
vt 0.416667 0.75
vt 0.5 0.75
vt 0.416667 0.666667
vt 0.5 0.666667
vt 0.416667 0.666667
vt 0.5 0.75
vt 0.416667 0.75
vt 0.333333 0.666667
vt 0.25 0.583333
vt 0.333333 0.583333
vt 0.25 0.583333
vt 0.333333 0.666667
vt 0.25 0.666667
vt 0.416667 0.666667
vt 0.333333 0.583333
vt 0.416667 0.583333
vt 0.333333 0.583333
vt 0.416667 0.666667
vt 0.333333 0.666667
vt 0.5 0.666667
vt 0.416667 0.583333
vt 0.5 0.583333
vt 0.416667 0.583333
vt 0.5 0.666667
vt 0.416667 0.666667
vt 0.333333 0.583333
vt 0.25 0.5
vt 0.333333 0.5
vt 0.25 0.5
vt 0.333333 0.583333
vt 0.25 0.583333
vt 0.416667 0.583333
vt 0.333333 0.5
vt 0.416667 0.5
vt 0.333333 0.5
vt 0.416667 0.583333
vt 0.333333 0.583333
vt 0.5 0.583333
vt 0.416667 0.5
vt 0.5 0.5
vt 0.416667 0.5
vt 0.5 0.583333
vt 0.416667 0.583333
vt 0 0
vt 0 0
vt 0 0
vt 0 0
vt 0 0
vt 0 0
vt 0 0
vt 0 0
vt 0 0
vt 0 0
vt 0 0
vt 0 0
vt 0 0
vt 0 0
vt 0 0
vt 0 0
vt 0 0
vt 0 0
vt 0 0
vt 0 0
vt 0 0
vt 0 0
vt 0 0
vt 0 0
vt 0 0
vt 0 0
vt 0 0
vt 0 0
vt 0 0
vt 0 0
vt 0 0
vt 0 0
vt 0 0
vt 0 0
vt 0 0
vt 0 0
vt 0 0
vt 0 0
vt 0 0
vt 0 0
vt 0 0
vt 0 0
vt 0.0833333 0.5
vt -2.98023e-008 0.416667
vt 0.0833333 0.416667
vt -2.98023e-008 0.416667
vt 0.0833333 0.5
vt -2.98023e-008 0.5
vt 0.166667 0.5
vt 0.0833333 0.416667
vt 0.166667 0.416667
vt 0.0833333 0.416667
vt 0.166667 0.5
vt 0.0833333 0.5
vt 0.166667 0.5
vt 0.25 0.416667
vt 0.25 0.5
vt 0.25 0.416667
vt 0.166667 0.5
vt 0.166667 0.416667
vt 0.0833333 0.416667
vt -2.98023e-008 0.333333
vt 0.0833333 0.333333
vt -2.98023e-008 0.333333
vt 0.0833333 0.416667
vt -2.98023e-008 0.416667
vt 0.166667 0.416667
vt 0.0833333 0.333333
vt 0.166667 0.333333
vt 0.0833333 0.333333
vt 0.166667 0.416667
vt 0.0833333 0.416667
vt 0.166667 0.416667
vt 0.25 0.333333
vt 0.25 0.416667
vt 0.25 0.333333
vt 0.166667 0.416667
vt 0.166667 0.333333
vt 0.0833333 0.333333
vt -2.98023e-008 0.25
vt 0.0833333 0.25
vt -2.98023e-008 0.25
vt 0.0833333 0.333333
vt -2.98023e-008 0.333333
vt 0.0833333 0.333333
vt 0.166667 0.25
vt 0.166667 0.333333
vt 0.166667 0.25
vt 0.0833333 0.333333
vt 0.0833333 0.25
vt 0.166667 0.333333
vt 0.25 0.25
vt 0.25 0.333333
vt 0.25 0.25
vt 0.166667 0.333333
vt 0.166667 0.25
vt -2.98023e-008 0.25
vt 0.0833333 0.166667
vt 0.0833333 0.25
vt 0.0833333 0.166667
vt -2.98023e-008 0.25
vt -2.98023e-008 0.166667
vt 0.0833333 0.25
vt 0.166667 0.166667
vt 0.166667 0.25
vt 0.166667 0.166667
vt 0.0833333 0.25
vt 0.0833333 0.166667
vt 0.166667 0.25
vt 0.25 0.166667
vt 0.25 0.25
vt 0.25 0.166667
vt 0.166667 0.25
vt 0.166667 0.166667
vt -2.98023e-008 0.166667
vt 0.0833333 0.0833333
vt 0.0833333 0.166667
vt 0.0833333 0.0833333
vt -2.98023e-008 0.166667
vt -2.98023e-008 0.0833333
vt 0.0833333 0.166667
vt 0.166667 0.0833333
vt 0.166667 0.166667
vt 0.166667 0.0833333
vt 0.0833333 0.166667
vt 0.0833333 0.0833333
vt 0.166667 0.166667
vt 0.25 0.0833333
vt 0.25 0.166667
vt 0.25 0.0833333
vt 0.166667 0.166667
vt 0.166667 0.0833333
vt 0 0
vt 0 0
vt 0 0
vt 0 0
vt 0 0
vt 0 0
vt 0 0
vt 0 0
vt 0 0
vt 0 0
vt 0 0
vt 0 0
vt 0 0
vt 0 0
vt 0 0
vt 0 0
vt 0 0
vt 0 0
vt 0 0
vt 0 0
vt 0 0
vt 0 0
vt 0 0
vt 0 0
vt 0 0
vt 0 0
vt 0 0
vt 0 0
vt 0 0
vt 0 0
vt 0 0
vt 0 0
vt 0 0
vt 0 0
vt 0 0
vt 0 0
vt 0.25 0.5
vt 0.333333 0.416667
vt 0.333333 0.5
vt 0.333333 0.416667
vt 0.25 0.5
vt 0.25 0.416667
vt 0.416667 0.5
vt 0.333333 0.416667
vt 0.416667 0.416667
vt 0.333333 0.416667
vt 0.416667 0.5
vt 0.333333 0.5
vt 0.5 0.5
vt 0.416667 0.416667
vt 0.5 0.416667
vt 0.416667 0.416667
vt 0.5 0.5
vt 0.416667 0.5
vt 0.25 0.416667
vt 0.333333 0.333333
vt 0.333333 0.416667
vt 0.333333 0.333333
vt 0.25 0.416667
vt 0.25 0.333333
vt 0.416667 0.416667
vt 0.333333 0.333333
vt 0.416667 0.333333
vt 0.333333 0.333333
vt 0.416667 0.416667
vt 0.333333 0.416667
vt 0.5 0.416667
vt 0.416667 0.333333
vt 0.5 0.333333
vt 0.416667 0.333333
vt 0.5 0.416667
vt 0.416667 0.416667
vt 0.25 0.333333
vt 0.333333 0.25
vt 0.333333 0.333333
vt 0.333333 0.25
vt 0.25 0.333333
vt 0.25 0.25
vt 0.333333 0.25
vt 0.416667 0.333333
vt 0.333333 0.333333
vt 0.416667 0.333333
vt 0.333333 0.25
vt 0.416667 0.25
vt 0.5 0.333333
vt 0.416667 0.25
vt 0.5 0.25
vt 0.416667 0.25
vt 0.5 0.333333
vt 0.416667 0.333333
vt 0.25 0.166667
vt 0.333333 0.25
vt 0.25 0.25
vt 0.333333 0.25
vt 0.25 0.166667
vt 0.333333 0.166667
vt 0.333333 0.166667
vt 0.416667 0.25
vt 0.333333 0.25
vt 0.416667 0.25
vt 0.333333 0.166667
vt 0.416667 0.166667
vt 0.416667 0.166667
vt 0.5 0.25
vt 0.416667 0.25
vt 0.5 0.25
vt 0.416667 0.166667
vt 0.5 0.166667
vt 0.25 0.0833333
vt 0.333333 0.166667
vt 0.25 0.166667
vt 0.333333 0.166667
vt 0.25 0.0833333
vt 0.333333 0.0833333
vt 0.333333 0.0833333
vt 0.416667 0.166667
vt 0.333333 0.166667
vt 0.416667 0.166667
vt 0.333333 0.0833333
vt 0.416667 0.0833333
vt 0.416667 0.0833333
vt 0.5 0.166667
vt 0.416667 0.166667
vt 0.5 0.166667
vt 0.416667 0.0833333
vt 0.5 0.0833333
vt 0 0
vt 0 0
vt 0 0
vt 0 0
vt 0 0
vt 0 0
vt 0 0
vt 0 0
vt 0 0
vt 0 0
vt 0 0
vt 0 0
vt 0 0
vt 0 0
vt 0 0
vt 0 0
vt 0 0
vt 0 0
vt 0 0
vt 0 0
vt 0 0
vt 0 0
vt 0 0
vt 0 0
vt 0 0
vt 0 0
vt 0 0
vt 0 0
vt 0 0
vt 0 0
vt 0 0
vt 0 0
vt 0 0
vt 0 0
vt 0 0
vt 0 0
vt 0 0
vt 0 0
vt 0 0
vt 0 0
vt 0 0
vt 0 0
vt 0 0
vt 0 0
vt 0 0
vt 0 0
vt 0 0
vt 0 0
vt 0 0
vt 0 0
vt 0 0
vt 0 0
vt 0 0
vt 0 0
vt 0 0
vt 0 0
vt 0 0
vt 0 0
vt 0 0
vt 0 0
vt 0 0
vt 0 0
vt 0 0
vt 0 0
vt 0 0
vt 0 0
vt 0 0
vt 0 0
vt 0 0
vt 0 0
vt 0 0
vt 0 0
vt 0 0
vt 0 0
vt 0 0
vt 0 0
vt 0 0
vt 0 0
vt 0 0
vt 0 0
vt 0 0
vt 0 0
vt 0 0
vt 0 0
vt 0 0
vt 0 0
vt 0 0
vt 0 0
vt 0 0
vt 0 0
vt 0 0
vt 0 0
vt 0 0
vt 0 0
vt 0 0
vt 0 0
vt 0 0
vt 0 0
vt 0 0
vt 0 0
vt 0 0
vt 0 0
vt 0 0
vt 0 0
vt 0 0
vt 0 0
vt 0 0
vt 0 0
vt 0 0
vt 0 0
vt 0 0
vt 0 0
vt 0 0
vt 0 0
vt 0 0
vt 0 0
vt 0 0
vt 0 0
vt 0 0
vt 0 0
vt 0 0
vt 0 0
vt 0 0
vt 0 0
vt 0 0
vt 0 0
vt 0 0
vt 0 0
vt 0 0
vt 0 0
vt 0 0
vt 0 0
vt 0 0
vt 0 0
vt 0 0
vt 0 0
vt 0 0
vt 0 0
vt 0 0
vt 0 0
vt 0 0
vt 0 0
vt 0 0
vt 0 0
vt 0 0
vt 0 0
vt 0 0
vt 0 0
vt 0 0
vt 0 0
vt 0 0
vt 0 0
vt 0 0
vt 0 0
vt 0 0
vt 0 0
vt 0 0
vt 0 0
vt 0 0
vt 0 0
vt 0 0
vt 0 0
vt 0 0
vt 0 0
vt 0 0
vt 0 0
vt 0 0
vt 0 0
vt 0.75 0.916667
vt 0.833333 0.833333
vt 0.833333 0.916667
vt 0.833333 0.833333
vt 0.75 0.916667
vt 0.75 0.833333
vt 0.833333 0.916667
vt 0.916667 0.833333
vt 0.916667 0.916667
vt 0.916667 0.833333
vt 0.833333 0.916667
vt 0.833333 0.833333
vt 0.916667 0.916667
vt 1 0.833333
vt 1 0.916667
vt 1 0.833333
vt 0.916667 0.916667
vt 0.916667 0.833333
vt 0.75 0.833333
vt 0.833333 0.75
vt 0.833333 0.833333
vt 0.833333 0.75
vt 0.75 0.833333
vt 0.75 0.75
vt 0.833333 0.833333
vt 0.916667 0.75
vt 0.916667 0.833333
vt 0.916667 0.75
vt 0.833333 0.833333
vt 0.833333 0.75
vt 0.916667 0.833333
vt 1 0.75
vt 1 0.833333
vt 1 0.75
vt 0.916667 0.833333
vt 0.916667 0.75
vt 0.833333 0.666667
vt 0.75 0.75
vt 0.75 0.666667
vt 0.75 0.75
vt 0.833333 0.666667
vt 0.833333 0.75
vt 0.833333 0.75
vt 0.916667 0.666667
vt 0.916667 0.75
vt 0.916667 0.666667
vt 0.833333 0.75
vt 0.833333 0.666667
vt 1 0.75
vt 0.916667 0.666667
vt 1 0.666667
vt 0.916667 0.666667
vt 1 0.75
vt 0.916667 0.75
vt 0.833333 0.583333
vt 0.75 0.666667
vt 0.75 0.583333
vt 0.75 0.666667
vt 0.833333 0.583333
vt 0.833333 0.666667
vt 0.916667 0.666667
vt 0.833333 0.583333
vt 0.916667 0.583333
vt 0.833333 0.583333
vt 0.916667 0.666667
vt 0.833333 0.666667
vt 1 0.666667
vt 0.916667 0.583333
vt 1 0.583333
vt 0.916667 0.583333
vt 1 0.666667
vt 0.916667 0.666667
vt 0.833333 0.5
vt 0.75 0.583333
vt 0.75 0.5
vt 0.75 0.583333
vt 0.833333 0.5
vt 0.833333 0.583333
vt 0.916667 0.583333
vt 0.833333 0.5
vt 0.916667 0.5
vt 0.833333 0.5
vt 0.916667 0.583333
vt 0.833333 0.583333
vt 1 0.583333
vt 0.916667 0.5
vt 1 0.5
vt 0.916667 0.5
vt 1 0.583333
vt 0.916667 0.583333
vt 0 0
vt 0 0
vt 0 0
vt 0 0
vt 0 0
vt 0 0
vt 0 0
vt 0 0
vt 0 0
vt 0 0
vt 0 0
vt 0 0
vt 0 0
vt 0 0
vt 0 0
vt 0 0
vt 0 0
vt 0 0
vt 0 0
vt 0 0
vt 0 0
vt 0 0
vt 0 0
vt 0 0
vt 0 0
vt 0 0
vt 0 0
vt 0 0
vt 0 0
vt 0 0
vt 0 0
vt 0 0
vt 0 0
vt 0 0
vt 0 0
vt 0 0
vt 0.583333 0.833333
vt 0.5 0.916667
vt 0.5 0.833333
vt 0.5 0.916667
vt 0.583333 0.833333
vt 0.583333 0.916667
vt 0.583333 0.833333
vt 0.666667 0.916667
vt 0.583333 0.916667
vt 0.666667 0.916667
vt 0.583333 0.833333
vt 0.666667 0.833333
vt 0.666667 0.833333
vt 0.75 0.916667
vt 0.666667 0.916667
vt 0.75 0.916667
vt 0.666667 0.833333
vt 0.75 0.833333
vt 0.583333 0.75
vt 0.5 0.833333
vt 0.5 0.75
vt 0.5 0.833333
vt 0.583333 0.75
vt 0.583333 0.833333
vt 0.583333 0.75
vt 0.666667 0.833333
vt 0.583333 0.833333
vt 0.666667 0.833333
vt 0.583333 0.75
vt 0.666667 0.75
vt 0.666667 0.75
vt 0.75 0.833333
vt 0.666667 0.833333
vt 0.75 0.833333
vt 0.666667 0.75
vt 0.75 0.75
vt 0.583333 0.75
vt 0.5 0.666667
vt 0.583333 0.666667
vt 0.5 0.666667
vt 0.583333 0.75
vt 0.5 0.75
vt 0.583333 0.666667
vt 0.666667 0.75
vt 0.583333 0.75
vt 0.666667 0.75
vt 0.583333 0.666667
vt 0.666667 0.666667
vt 0.75 0.666667
vt 0.666667 0.75
vt 0.666667 0.666667
vt 0.666667 0.75
vt 0.75 0.666667
vt 0.75 0.75
vt 0.583333 0.666667
vt 0.5 0.583333
vt 0.583333 0.583333
vt 0.5 0.583333
vt 0.583333 0.666667
vt 0.5 0.666667
vt 0.666667 0.666667
vt 0.583333 0.583333
vt 0.666667 0.583333
vt 0.583333 0.583333
vt 0.666667 0.666667
vt 0.583333 0.666667
vt 0.75 0.583333
vt 0.666667 0.666667
vt 0.666667 0.583333
vt 0.666667 0.666667
vt 0.75 0.583333
vt 0.75 0.666667
vt 0.583333 0.583333
vt 0.5 0.5
vt 0.583333 0.5
vt 0.5 0.5
vt 0.583333 0.583333
vt 0.5 0.583333
vt 0.666667 0.583333
vt 0.583333 0.5
vt 0.666667 0.5
vt 0.583333 0.5
vt 0.666667 0.583333
vt 0.583333 0.583333
vt 0.75 0.5
vt 0.666667 0.583333
vt 0.666667 0.5
vt 0.666667 0.583333
vt 0.75 0.5
vt 0.75 0.583333
vt 0 0
vt 0 0
vt 0 0
vt 0 0
vt 0 0
vt 0 0
vt 0 0
vt 0 0
vt 0 0
vt 0 0
vt 0 0
vt 0 0
vt 0 0
vt 0 0
vt 0 0
vt 0 0
vt 0 0
vt 0 0
vt 0 0
vt 0 0
vt 0 0
vt 0 0
vt 0 0
vt 0 0
vt 0 0
vt 0 0
vt 0 0
vt 0 0
vt 0 0
vt 0 0
vt 0 0
vt 0 0
vt 0 0
vt 0 0
vt 0 0
vt 0 0
vt 0 0
vt 0 0
vt 0 0
vt 0 0
vt 0 0
vt 0 0
vt 0.833333 0.416667
vt 0.75 0.5
vt 0.75 0.416667
vt 0.75 0.5
vt 0.833333 0.416667
vt 0.833333 0.5
vt 0.916667 0.5
vt 0.833333 0.416667
vt 0.916667 0.416667
vt 0.833333 0.416667
vt 0.916667 0.5
vt 0.833333 0.5
vt 1 0.5
vt 0.916667 0.416667
vt 1 0.416667
vt 0.916667 0.416667
vt 1 0.5
vt 0.916667 0.5
vt 0.833333 0.333333
vt 0.75 0.416667
vt 0.75 0.333333
vt 0.75 0.416667
vt 0.833333 0.333333
vt 0.833333 0.416667
vt 0.916667 0.416667
vt 0.833333 0.333333
vt 0.916667 0.333333
vt 0.833333 0.333333
vt 0.916667 0.416667
vt 0.833333 0.416667
vt 1 0.416667
vt 0.916667 0.333333
vt 1 0.333333
vt 0.916667 0.333333
vt 1 0.416667
vt 0.916667 0.416667
vt 0.833333 0.25
vt 0.75 0.333333
vt 0.75 0.25
vt 0.75 0.333333
vt 0.833333 0.25
vt 0.833333 0.333333
vt 0.916667 0.333333
vt 0.833333 0.25
vt 0.916667 0.25
vt 0.833333 0.25
vt 0.916667 0.333333
vt 0.833333 0.333333
vt 1 0.333333
vt 0.916667 0.25
vt 1 0.25
vt 0.916667 0.25
vt 1 0.333333
vt 0.916667 0.333333
vt 0.833333 0.25
vt 0.75 0.166667
vt 0.833333 0.166667
vt 0.75 0.166667
vt 0.833333 0.25
vt 0.75 0.25
vt 0.916667 0.25
vt 0.833333 0.166667
vt 0.916667 0.166667
vt 0.833333 0.166667
vt 0.916667 0.25
vt 0.833333 0.25
vt 0.916667 0.25
vt 1 0.166667
vt 1 0.25
vt 1 0.166667
vt 0.916667 0.25
vt 0.916667 0.166667
vt 0.833333 0.166667
vt 0.75 0.0833333
vt 0.833333 0.0833333
vt 0.75 0.0833333
vt 0.833333 0.166667
vt 0.75 0.166667
vt 0.916667 0.166667
vt 0.833333 0.0833333
vt 0.916667 0.0833333
vt 0.833333 0.0833333
vt 0.916667 0.166667
vt 0.833333 0.166667
vt 0.916667 0.166667
vt 1 0.0833333
vt 1 0.166667
vt 1 0.0833333
vt 0.916667 0.166667
vt 0.916667 0.0833333
vt 0 0
vt 0 0
vt 0 0
vt 0 0
vt 0 0
vt 0 0
vt 0 0
vt 0 0
vt 0 0
vt 0 0
vt 0 0
vt 0 0
vt 0 0
vt 0 0
vt 0 0
vt 0 0
vt 0 0
vt 0 0
vt 0 0
vt 0 0
vt 0 0
vt 0 0
vt 0 0
vt 0 0
vt 0 0
vt 0 0
vt 0 0
vt 0 0
vt 0 0
vt 0 0
vt 0 0
vt 0 0
vt 0 0
vt 0 0
vt 0 0
vt 0 0
vt 0.583333 0.5
vt 0.5 0.416667
vt 0.583333 0.416667
vt 0.5 0.416667
vt 0.583333 0.5
vt 0.5 0.5
vt 0.666667 0.5
vt 0.583333 0.416667
vt 0.666667 0.416667
vt 0.583333 0.416667
vt 0.666667 0.5
vt 0.583333 0.5
vt 0.666667 0.416667
vt 0.75 0.5
vt 0.666667 0.5
vt 0.75 0.5
vt 0.666667 0.416667
vt 0.75 0.416667
vt 0.583333 0.416667
vt 0.5 0.333333
vt 0.583333 0.333333
vt 0.5 0.333333
vt 0.583333 0.416667
vt 0.5 0.416667
vt 0.666667 0.416667
vt 0.583333 0.333333
vt 0.666667 0.333333
vt 0.583333 0.333333
vt 0.666667 0.416667
vt 0.583333 0.416667
vt 0.666667 0.333333
vt 0.75 0.416667
vt 0.666667 0.416667
vt 0.75 0.416667
vt 0.666667 0.333333
vt 0.75 0.333333
vt 0.583333 0.333333
vt 0.5 0.25
vt 0.583333 0.25
vt 0.5 0.25
vt 0.583333 0.333333
vt 0.5 0.333333
vt 0.666667 0.25
vt 0.583333 0.333333
vt 0.583333 0.25
vt 0.583333 0.333333
vt 0.666667 0.25
vt 0.666667 0.333333
vt 0.666667 0.25
vt 0.75 0.333333
vt 0.666667 0.333333
vt 0.75 0.333333
vt 0.666667 0.25
vt 0.75 0.25
vt 0.583333 0.166667
vt 0.5 0.25
vt 0.5 0.166667
vt 0.5 0.25
vt 0.583333 0.166667
vt 0.583333 0.25
vt 0.666667 0.166667
vt 0.583333 0.25
vt 0.583333 0.166667
vt 0.583333 0.25
vt 0.666667 0.166667
vt 0.666667 0.25
vt 0.75 0.166667
vt 0.666667 0.25
vt 0.666667 0.166667
vt 0.666667 0.25
vt 0.75 0.166667
vt 0.75 0.25
vt 0.583333 0.0833333
vt 0.5 0.166667
vt 0.5 0.0833333
vt 0.5 0.166667
vt 0.583333 0.0833333
vt 0.583333 0.166667
vt 0.666667 0.0833333
vt 0.583333 0.166667
vt 0.583333 0.0833333
vt 0.583333 0.166667
vt 0.666667 0.0833333
vt 0.666667 0.166667
vt 0.75 0.0833333
vt 0.666667 0.166667
vt 0.666667 0.0833333
vt 0.666667 0.166667
vt 0.75 0.0833333
vt 0.75 0.166667
vt 0.0416666 1
vt -2.98023e-008 0.916667
vt 0.0833333 0.916667
vt 0.125 1
vt 0.0833333 0.916667
vt 0.166667 0.916667
vt 0.208333 1
vt 0.166667 0.916667
vt 0.25 0.916667
vt 0.291667 1
vt 0.25 0.916667
vt 0.333333 0.916667
vt 0.375 1
vt 0.333333 0.916667
vt 0.416667 0.916667
vt 0.458333 1
vt 0.416667 0.916667
vt 0.5 0.916667
vt 0.0416666 0
vt 0.0833333 0.0833333
vt -2.98023e-008 0.0833333
vt 0.125 0
vt 0.166667 0.0833333
vt 0.0833333 0.0833333
vt 0.208333 0
vt 0.25 0.0833333
vt 0.166667 0.0833333
vt 0.291667 0
vt 0.333333 0.0833333
vt 0.25 0.0833333
vt 0.375 0
vt 0.416667 0.0833333
vt 0.333333 0.0833333
vt 0.458333 0
vt 0.5 0.0833333
vt 0.416667 0.0833333
vt 0.791667 1
vt 0.75 0.916667
vt 0.833333 0.916667
vt 0.875 1
vt 0.833333 0.916667
vt 0.916667 0.916667
vt 0.958333 1
vt 0.916667 0.916667
vt 1 0.916667
vt 0.541667 1
vt 0.5 0.916667
vt 0.583333 0.916667
vt 0.625 1
vt 0.583333 0.916667
vt 0.666667 0.916667
vt 0.708333 1
vt 0.666667 0.916667
vt 0.75 0.916667
vt 0.791667 0
vt 0.833333 0.0833333
vt 0.75 0.0833333
vt 0.875 0
vt 0.916667 0.0833333
vt 0.833333 0.0833333
vt 0.958333 0
vt 1 0.0833333
vt 0.916667 0.0833333
vt 0.541667 0
vt 0.583333 0.0833333
vt 0.5 0.0833333
vt 0.625 0
vt 0.666667 0.0833333
vt 0.583333 0.0833333
vt 0.708333 0
vt 0.75 0.0833333
vt 0.666667 0.0833333
usemtl acmat_0
f 200/1/1 2/2/2 198/3/3
f 2/4/4 200/5/5 1/6/6
f 199/7/7 198/8/8 197/9/9
f 198/10/10 199/11/11 200/12/12
f 190/13/13 197/14/14 189/15/15
f 197/16/16 190/17/17 199/18/18
f 198/19/19 3/20/20 196/21/21
f 3/22/22 198/23/23 2/24/24
f 197/25/25 196/26/26 195/27/27
f 196/28/28 197/29/29 198/30/30
f 189/31/31 195/32/32 188/33/33
f 195/34/34 189/35/35 197/36/36
f 196/37/37 4/38/38 194/39/39
f 4/40/40 196/41/41 3/42/42
f 195/43/43 194/44/44 193/45/45
f 194/46/46 195/47/47 196/48/48
f 195/49/49 187/50/50 188/51/51
f 187/52/52 195/53/53 193/54/54
f 194/55/55 5/56/56 192/57/57
f 5/58/58 194/59/59 4/60/60
f 193/61/61 192/62/62 191/63/63
f 192/64/64 193/65/65 194/66/66
f 193/67/67 186/68/68 187/69/69
f 186/70/70 193/71/71 191/72/72
f 192/73/73 13/74/74 170/75/75
f 13/76/76 192/77/77 5/78/78
f 191/79/79 170/80/80 169/81/81
f 170/82/82 191/83/83 192/84/84
f 191/85/85 168/86/86 186/87/87
f 168/88/88 191/89/89 169/90/90
f 7/91/91 190/92/92 185/93/93
f 190/94/94 7/95/95 6/96/96
f 185/97/97 189/98/98 182/99/99
f 189/100/100 185/101/101 190/102/102
f 182/103/103 188/104/104 179/105/105
f 188/106/106 182/107/107 189/108/108
f 188/109/109 176/110/110 179/111/111
f 176/112/112 188/113/113 187/114/114
f 187/115/115 173/116/116 176/117/117
f 173/118/118 187/119/119 186/120/120
f 186/121/121 167/122/122 173/123/123
f 167/124/124 186/125/125 168/126/126
f 181/127/127 185/128/128 182/129/129
f 185/130/130 181/131/131 184/132/132
f 180/133/133 184/134/134 181/135/135
f 184/136/136 180/137/137 183/138/138
f 9/139/139 183/140/140 180/141/141
f 183/142/142 9/143/143 8/144/144
f 178/145/145 182/146/146 179/147/147
f 182/148/148 178/149/149 181/150/150
f 177/151/151 181/152/152 178/153/153
f 181/154/154 177/155/155 180/156/156
f 10/157/157 180/158/158 177/159/159
f 180/160/160 10/161/161 9/162/162
f 178/163/163 176/164/164 175/165/165
f 176/166/166 178/167/167 179/168/168
f 174/169/169 178/170/170 175/171/171
f 178/172/172 174/173/173 177/174/174
f 10/175/175 174/176/176 11/177/177
f 174/178/178 10/179/179 177/180/180
f 175/181/181 173/182/182 172/183/183
f 173/184/184 175/185/185 176/186/186
f 174/187/187 172/188/188 171/189/189
f 172/190/190 174/191/191 175/192/192
f 11/193/193 171/194/194 12/195/195
f 171/196/196 11/197/197 174/198/198
f 172/199/199 167/200/200 166/201/201
f 167/202/202 172/203/203 173/204/204
f 171/205/205 166/206/206 165/207/207
f 166/208/208 171/209/209 172/210/210
f 12/211/211 165/212/212 14/213/213
f 165/214/214 12/215/215 171/216/216
f 170/217/217 15/218/218 164/219/219
f 15/220/220 170/221/221 13/222/222
f 169/223/223 164/224/224 163/225/225
f 164/226/226 169/227/227 170/228/228
f 169/229/229 152/230/230 168/231/231
f 152/232/232 169/233/233 163/234/234
f 168/235/235 146/236/236 167/237/237
f 146/238/238 168/239/239 152/240/240
f 167/241/241 145/242/242 166/243/243
f 145/244/244 167/245/245 146/246/246
f 165/247/247 145/248/248 144/249/249
f 145/250/250 165/251/251 166/252/252
f 14/253/253 144/254/254 23/255/255
f 144/256/256 14/257/257 165/258/258
f 164/259/259 16/260/260 162/261/261
f 16/262/262 164/263/263 15/264/264
f 163/265/265 162/266/266 161/267/267
f 162/268/268 163/269/269 164/270/270
f 163/271/271 151/272/272 152/273/273
f 151/274/274 163/275/275 161/276/276
f 162/277/277 17/278/278 160/279/279
f 17/280/280 162/281/281 16/282/282
f 161/283/283 160/284/284 159/285/285
f 160/286/286 161/287/287 162/288/288
f 161/289/289 150/290/290 151/291/291
f 150/292/292 161/293/293 159/294/294
f 160/295/295 18/296/296 158/297/297
f 18/298/298 160/299/299 17/300/300
f 160/301/301 157/302/302 159/303/303
f 157/304/304 160/305/305 158/306/306
f 159/307/307 149/308/308 150/309/309
f 149/310/310 159/311/311 157/312/312
f 18/313/313 155/314/314 158/315/315
f 155/316/316 18/317/317 20/318/318
f 158/319/319 153/320/320 157/321/321
f 153/322/322 158/323/323 155/324/324
f 157/325/325 147/326/326 149/327/327
f 147/328/328 157/329/329 153/330/330
f 20/331/331 156/332/332 155/333/333
f 156/334/334 20/335/335 19/336/336
f 155/337/337 154/338/338 153/339/339
f 154/340/340 155/341/341 156/342/342
f 153/343/343 148/344/344 147/345/345
f 148/346/346 153/347/347 154/348/348
f 21/349/349 134/350/350 148/351/351
f 134/352/352 21/353/353 22/354/354
f 152/355/355 143/356/356 146/357/357
f 143/358/358 152/359/359 151/360/360
f 151/361/361 140/362/362 143/363/363
f 140/364/364 151/365/365 150/366/366
f 150/367/367 137/368/368 140/369/369
f 137/370/370 150/371/371 149/372/372
f 147/373/373 137/374/374 149/375/375
f 137/376/376 147/377/377 133/378/378
f 148/379/379 133/380/380 147/381/381
f 133/382/382 148/383/383 134/384/384
f 146/385/385 142/386/386 145/387/387
f 142/388/388 146/389/389 143/390/390
f 144/391/391 142/392/392 141/393/393
f 142/394/394 144/395/395 145/396/396
f 23/397/397 141/398/398 24/399/399
f 141/400/400 23/401/401 144/402/402
f 143/403/403 139/404/404 142/405/405
f 139/406/406 143/407/407 140/408/408
f 141/409/409 139/410/410 138/411/411
f 139/412/412 141/413/413 142/414/414
f 24/415/415 138/416/416 25/417/417
f 138/418/418 24/419/419 141/420/420
f 140/421/421 136/422/422 139/423/423
f 136/424/424 140/425/425 137/426/426
f 136/427/427 138/428/428 139/429/429
f 138/430/430 136/431/431 135/432/432
f 25/433/433 135/434/434 26/435/435
f 135/436/436 25/437/437 138/438/438
f 133/439/439 136/440/440 137/441/441
f 136/442/442 133/443/443 131/444/444
f 131/445/445 135/446/446 136/447/447
f 135/448/448 131/449/449 129/450/450
f 129/451/451 26/452/452 135/453/453
f 26/454/454 129/455/455 27/456/456
f 134/457/457 131/458/458 133/459/459
f 131/460/460 134/461/461 132/462/462
f 132/463/463 129/464/464 131/465/465
f 129/466/466 132/467/467 130/468/468
f 130/469/469 27/470/470 129/471/471
f 27/472/472 130/473/473 28/474/474
f 113/475/475 1/476/476 6/477/477
f 1/478/478 113/479/479 126/480/480
f 126/481/481 2/482/482 1/483/483
f 2/484/484 126/485/485 123/486/486
f 123/487/487 3/488/488 2/489/489
f 3/490/490 123/491/491 120/492/492
f 3/493/493 117/494/494 4/495/495
f 117/496/496 3/497/497 120/498/498
f 4/499/499 114/500/500 5/501/501
f 114/502/502 4/503/503 117/504/504
f 5/505/505 30/506/506 13/507/507
f 30/508/508 5/509/509 114/510/510
f 107/511/511 6/512/512 7/513/513
f 6/514/514 107/515/515 113/516/516
f 106/517/517 7/518/518 8/519/519
f 7/520/520 106/521/521 107/522/522
f 102/523/523 8/524/524 9/525/525
f 8/526/526 102/527/527 106/528/528
f 98/529/529 9/530/530 10/531/531
f 9/532/532 98/533/533 102/534/534
f 98/535/535 11/536/536 94/537/537
f 11/538/538 98/539/539 10/540/540
f 94/541/541 12/542/542 90/543/543
f 12/544/544 94/545/545 11/546/546
f 90/547/547 14/548/548 33/549/549
f 14/550/550 90/551/551 12/552/552
f 13/553/553 84/554/554 15/555/555
f 84/556/556 13/557/557 30/558/558
f 33/559/559 23/560/560 44/561/561
f 23/562/562 33/563/563 14/564/564
f 69/565/565 21/566/566 19/567/567
f 21/568/568 69/569/569 37/570/570
f 15/571/571 81/572/572 16/573/573
f 81/574/574 15/575/575 84/576/576
f 16/577/577 78/578/578 17/579/579
f 78/580/580 16/581/581 81/582/582
f 17/583/583 75/584/584 18/585/585
f 75/586/586 17/587/587 78/588/588
f 75/589/589 20/590/590 18/591/591
f 20/592/592 75/593/593 70/594/594
f 70/595/595 19/596/596 20/597/597
f 19/598/598 70/599/599 69/600/600
f 37/601/601 22/602/602 21/603/603
f 22/604/604 37/605/605 68/606/606
f 68/607/607 28/608/608 22/609/609
f 28/610/610 68/611/611 64/612/612
f 44/613/613 24/614/614 48/615/615
f 24/616/616 44/617/617 23/618/618
f 48/619/619 25/620/620 52/621/621
f 25/622/622 48/623/623 24/624/624
f 52/625/625 26/626/626 56/627/627
f 26/628/628 52/629/629 25/630/630
f 60/631/631 26/632/632 27/633/633
f 26/634/634 60/635/635 56/636/636
f 64/637/637 27/638/638 28/639/639
f 27/640/640 64/641/641 60/642/642
f 112/643/643 125/644/644 128/645/645
f 125/646/646 112/647/647 111/648/648
f 128/649/649 124/650/650 127/651/651
f 124/652/652 128/653/653 125/654/654
f 127/655/655 123/656/656 126/657/657
f 123/658/658 127/659/659 124/660/660
f 111/661/661 122/662/662 125/663/663
f 122/664/664 111/665/665 110/666/666
f 125/667/667 121/668/668 124/669/669
f 121/670/670 125/671/671 122/672/672
f 124/673/673 120/674/674 123/675/675
f 120/676/676 124/677/677 121/678/678
f 119/679/679 110/680/680 109/681/681
f 110/682/682 119/683/683 122/684/684
f 122/685/685 118/686/686 121/687/687
f 118/688/688 122/689/689 119/690/690
f 120/691/691 118/692/692 117/693/693
f 118/694/694 120/695/695 121/696/696
f 116/697/697 109/698/698 108/699/699
f 109/700/700 116/701/701 119/702/702
f 118/703/703 116/704/704 115/705/705
f 116/706/706 118/707/707 119/708/708
f 117/709/709 115/710/710 114/711/711
f 115/712/712 117/713/713 118/714/714
f 29/715/715 108/716/716 32/717/717
f 108/718/718 29/719/719 116/720/720
f 115/721/721 29/722/722 31/723/723
f 29/724/724 115/725/725 116/726/726
f 114/727/727 31/728/728 30/729/729
f 31/730/730 114/731/731 115/732/732
f 103/733/733 113/734/734 107/735/735
f 113/736/736 103/737/737 112/738/738
f 99/739/739 112/740/740 103/741/741
f 112/742/742 99/743/743 111/744/744
f 95/745/745 111/746/746 99/747/747
f 111/748/748 95/749/749 110/750/750
f 109/751/751 95/752/752 91/753/753
f 95/754/754 109/755/755 110/756/756
f 108/757/757 91/758/758 87/759/759
f 91/760/760 108/761/761 109/762/762
f 32/763/763 87/764/764 35/765/765
f 87/766/766 32/767/767 108/768/768
f 101/769/769 106/770/770 102/771/771
f 106/772/772 101/773/773 105/774/774
f 101/775/775 104/776/776 105/777/777
f 104/778/778 101/779/779 100/780/780
f 100/781/781 103/782/782 104/783/783
f 103/784/784 100/785/785 99/786/786
f 97/787/787 102/788/788 98/789/789
f 102/790/790 97/791/791 101/792/792
f 97/793/793 100/794/794 101/795/795
f 100/796/796 97/797/797 96/798/798
f 96/799/799 99/800/800 100/801/801
f 99/802/802 96/803/803 95/804/804
f 97/805/805 94/806/806 93/807/807
f 94/808/808 97/809/809 98/810/810
f 93/811/811 96/812/812 97/813/813
f 96/814/814 93/815/815 92/816/816
f 91/817/817 96/818/818 92/819/819
f 96/820/820 91/821/821 95/822/822
f 93/823/823 90/824/824 89/825/825
f 90/826/826 93/827/827 94/828/828
f 92/829/829 89/830/830 88/831/831
f 89/832/832 92/833/833 93/834/834
f 87/835/835 92/836/836 88/837/837
f 92/838/838 87/839/839 91/840/840
f 89/841/841 33/842/842 34/843/843
f 33/844/844 89/845/845 90/846/846
f 88/847/847 34/848/848 36/849/849
f 34/850/850 88/851/851 89/852/852
f 35/853/853 88/854/854 36/855/855
f 88/856/856 35/857/857 87/858/858
f 86/859/859 32/860/860 38/861/861
f 32/862/862 86/863/863 29/864/864
f 31/865/865 86/866/866 85/867/867
f 86/868/868 31/869/869 29/870/870
f 30/871/871 85/872/872 84/873/873
f 85/874/874 30/875/875 31/876/876
f 38/877/877 35/878/878 47/879/879
f 35/880/880 38/881/881 32/882/882
f 34/883/883 44/884/884 45/885/885
f 44/886/886 34/887/887 33/888/888
f 36/889/889 45/890/890 46/891/891
f 45/892/892 36/893/893 34/894/894
f 47/895/895 36/896/896 46/897/897
f 36/898/898 47/899/899 35/900/900
f 83/901/901 38/902/902 39/903/903
f 38/904/904 83/905/905 86/906/906
f 85/907/907 83/908/908 82/909/909
f 83/910/910 85/911/911 86/912/912
f 84/913/913 82/914/914 81/915/915
f 82/916/916 84/917/917 85/918/918
f 80/919/919 39/920/920 40/921/921
f 39/922/922 80/923/923 83/924/924
f 82/925/925 80/926/926 79/927/927
f 80/928/928 82/929/929 83/930/930
f 81/931/931 79/932/932 78/933/933
f 79/934/934 81/935/935 82/936/936
f 77/937/937 40/938/938 41/939/939
f 40/940/940 77/941/941 80/942/942
f 79/943/943 77/944/944 76/945/945
f 77/946/946 79/947/947 80/948/948
f 78/949/949 76/950/950 75/951/951
f 76/952/952 78/953/953 79/954/954
f 77/955/955 43/956/956 73/957/957
f 43/958/958 77/959/959 41/960/960
f 76/961/961 73/962/962 71/963/963
f 73/964/964 76/965/965 77/966/966
f 76/967/967 70/968/968 75/969/969
f 70/970/970 76/971/971 71/972/972
f 73/973/973 42/974/974 74/975/975
f 42/976/976 73/977/977 43/978/978
f 71/979/979 74/980/980 72/981/981
f 74/982/982 71/983/983 73/984/984
f 71/985/985 69/986/986 70/987/987
f 69/988/988 71/989/989 72/990/990
f 42/991/991 68/992/992 37/993/993
f 68/994/994 42/995/995 67/996/996
f 39/997/997 47/998/998 51/999/999
f 47/1000/1000 39/1001/1001 38/1002/1002
f 40/1003/1003 51/1004/1004 55/1005/1005
f 51/1006/1006 40/1007/1007 39/1008/1008
f 41/1009/1009 55/1010/1010 59/1011/1011
f 55/1012/1012 41/1013/1013 40/1014/1014
f 41/1015/1015 63/1016/1016 43/1017/1017
f 63/1018/1018 41/1019/1019 59/1020/1020
f 43/1021/1021 67/1022/1022 42/1023/1023
f 67/1024/1024 43/1025/1025 63/1026/1026
f 45/1027/1027 48/1028/1028 49/1029/1029
f 48/1030/1030 45/1031/1031 44/1032/1032
f 46/1033/1033 49/1034/1034 50/1035/1035
f 49/1036/1036 46/1037/1037 45/1038/1038
f 50/1039/1039 47/1040/1040 46/1041/1041
f 47/1042/1042 50/1043/1043 51/1044/1044
f 49/1045/1045 52/1046/1046 53/1047/1047
f 52/1048/1048 49/1049/1049 48/1050/1050
f 50/1051/1051 53/1052/1052 54/1053/1053
f 53/1054/1054 50/1055/1055 49/1056/1056
f 54/1057/1057 51/1058/1058 50/1059/1059
f 51/1060/1060 54/1061/1061 55/1062/1062
f 53/1063/1063 56/1064/1064 57/1065/1065
f 56/1066/1066 53/1067/1067 52/1068/1068
f 58/1069/1069 53/1070/1070 57/1071/1071
f 53/1072/1072 58/1073/1073 54/1074/1074
f 58/1075/1075 55/1076/1076 54/1077/1077
f 55/1078/1078 58/1079/1079 59/1080/1080
f 61/1081/1081 56/1082/1082 60/1083/1083
f 56/1084/1084 61/1085/1085 57/1086/1086
f 62/1087/1087 57/1088/1088 61/1089/1089
f 57/1090/1090 62/1091/1091 58/1092/1092
f 63/1093/1093 58/1094/1094 62/1095/1095
f 58/1096/1096 63/1097/1097 59/1098/1098
f 65/1099/1099 60/1100/1100 64/1101/1101
f 60/1102/1102 65/1103/1103 61/1104/1104
f 66/1105/1105 61/1106/1106 65/1107/1107
f 61/1108/1108 66/1109/1109 62/1110/1110
f 67/1111/1111 62/1112/1112 66/1113/1113
f 62/1114/1114 67/1115/1115 63/1116/1116
f 6/1117/1117 1/1118/1118 200/1119/1119
f 6/1120/1120 200/1121/1121 199/1122/1122
f 6/1123/1123 199/1124/1124 190/1125/1125
f 7/1126/1126 185/1127/1127 184/1128/1128
f 7/1129/1129 184/1130/1130 183/1131/1131
f 7/1132/1132 183/1133/1133 8/1134/1134
f 21/1135/1135 156/1136/1136 19/1137/1137
f 21/1138/1138 154/1139/1139 156/1140/1140
f 21/1141/1141 148/1142/1142 154/1143/1143
f 22/1144/1144 132/1145/1145 134/1146/1146
f 22/1147/1147 130/1148/1148 132/1149/1149
f 22/1150/1150 28/1151/1151 130/1152/1152
f 113/1153/1153 112/1154/1154 128/1155/1155
f 113/1156/1156 128/1157/1157 127/1158/1158
f 113/1159/1159 127/1160/1160 126/1161/1161
f 107/1162/1162 106/1163/1163 105/1164/1164
f 107/1165/1165 105/1166/1166 104/1167/1167
f 107/1168/1168 104/1169/1169 103/1170/1170
f 37/1171/1171 74/1172/1172 42/1173/1173
f 37/1174/1174 72/1175/1175 74/1176/1176
f 37/1177/1177 69/1178/1178 72/1179/1179
f 68/1180/1180 65/1181/1181 64/1182/1182
f 68/1183/1183 66/1184/1184 65/1185/1185
f 68/1186/1186 67/1187/1187 66/1188/1188
